# Track von garmin.bas (c) Markus Hoffmann
# Gesamt: 1534 Punkte. 30.03.2003 16:42:13
# Tracks:
# ACTIVE LOG: 0 bis 1533
# Format=0 
 ** X=9.878940582275 Y=53.53644132614 alt=-1.3046875 date=417951729 dist=6085.297 m
  + X=9.878919124603 Y=53.53641986847 alt=-1.3046875 date=417951730 dist=2.775 m V*=(1.41,2.38,0) m/s v=9.9 km/h
  + X=9.878640174866 Y=53.53626966476 alt=-0.3433837890625 date=417951750 dist=24.875 m V*=(0.92,0.83,0.04) m/s v=4.4 km/h
  + X=9.878318309784 Y=53.53609800339 alt=1.579345703125 date=417951775 dist=28.579 m V*=(0.85,0.76,0.07) m/s v=4.1 km/h
  + X=9.878232479095 Y=53.53605508804 alt=2.06005859375 date=417951782 dist=7.412 m V*=(0.81,0.68,0.06) m/s v=3.8 km/h
  + X=9.878082275391 Y=53.53596925735 alt=0.6180419921875 date=417951799 dist=13.77 m V*=(0.58,0.56,-0.08) m/s v=2.9 km/h
  + X=9.878060817719 Y=53.53596925735 alt=0.6180419921875 date=417951908 dist=1.418 m V*=(0.01,0,0) m/s v=0 km/h
  + X=9.878060817719 Y=53.53596925735 alt=1.0986328125 date=417951965 dist=0 m V*=(0,0,0) m/s v=0 km/h
  + X=9.878060817719 Y=53.53594779968 alt=2.06005859375 date=417952020 dist=2.385 m V*=(0,0.04,0.01) m/s v=0.1 km/h
  + X=9.878103733063 Y=53.53588342667 alt=2.06005859375 date=417952024 dist=7.699 m V*=(0.7,1.78,0) m/s v=6.9 km/h
  + X=9.878726005554 Y=53.53545427322 alt=1.0986328125 date=417952041 dist=62.994 m V*=(2.41,2.8,-0.05) m/s v=13.3 km/h
  + X=9.879198074341 Y=53.53513240814 alt=0.6180419921875 date=417952054 dist=47.478 m V*=(2.39,2.75,-0.03) m/s v=13.1 km/h
  + X=9.879133701324 Y=53.53459596634 alt=-1.3046875 date=417952070 dist=59.801 m V*=(0.26,3.72,-0.12) m/s v=13.4 km/h
  + X=9.87868309021 Y=53.53356599808 alt=-1.785278320312 date=417952099 dist=118.335 m V*=(1.02,3.94,-0.01) m/s v=14.6 km/h
  + X=9.878618717194 Y=53.53343725204 alt=-1.3046875 date=417952110 dist=14.934 m V*=(0.38,1.3,0.04) m/s v=4.8 km/h
  + X=9.878554344177 Y=53.53335142136 alt=-1.3046875 date=417952123 dist=10.449 m V*=(0.32,0.73,0) m/s v=2.8 km/h
  + X=9.87827539444 Y=53.53317975998 alt=-1.3046875 date=417952133 dist=26.537 m V*=(1.84,1.9,0) m/s v=9.5 km/h
  + X=9.877352714539 Y=53.53328704834 alt=-0.8240966796875 date=417952151 dist=62.135 m V*=(3.38,0.66,0.02) m/s v=12.4 km/h
  + X=9.87645149231 Y=53.5333943367 alt=-0.3433837890625 date=417952167 dist=60.744 m V*=(3.72,0.74,0.03) m/s v=13.6 km/h
  + X=9.875571727753 Y=53.53345870972 alt=-0.3433837890625 date=417952181 dist=58.581 m V*=(4.15,0.51,0) m/s v=15 km/h
  + X=9.87443447113 Y=53.53354454041 alt=-0.3433837890625 date=417952200 dist=75.763 m V*=(3.95,0.5,0) m/s v=14.3 km/h
  + X=9.873168468475 Y=53.53367328644 alt=0.137451171875 date=417952221 dist=84.884 m V*=(3.98,0.68,0.02) m/s v=14.5 km/h
  + X=9.871945381165 Y=53.53375911713 alt=0.137451171875 date=417952240 dist=81.393 m V*=(4.25,0.5,0) m/s v=15.4 km/h
  + X=9.869842529297 Y=53.5339307785 alt=1.0986328125 date=417952275 dist=140.278 m V*=(3.97,0.54,0.02) m/s v=14.4 km/h
  + X=9.868018627167 Y=53.5339307785 alt=3.021240234375 date=417952306 dist=120.538 m V*=(3.88,0,0.06) m/s v=13.9 km/h
  + X=9.866538047791 Y=53.53397369385 alt=3.021240234375 date=417952331 dist=97.965 m V*=(3.91,0.19,0) m/s v=14.1 km/h
  + X=9.864971637726 Y=53.53401660919 alt=3.501953125 date=417952357 dist=103.631 m V*=(3.98,0.18,0.01) m/s v=14.3 km/h
  + X=9.86400604248 Y=53.53403806686 alt=3.501953125 date=417952374 dist=63.859 m V*=(3.75,0.14,0) m/s v=13.5 km/h
  + X=9.862675666809 Y=53.53412389755 alt=3.021240234375 date=417952397 dist=88.438 m V*=(3.82,0.41,-0.02) m/s v=13.8 km/h
  + X=9.861946105957 Y=53.53423118591 alt=3.501953125 date=417952410 dist=49.669 m V*=(3.7,0.91,0.03) m/s v=13.7 km/h
  + X=9.860229492188 Y=53.53461742401 alt=3.021240234375 date=417952441 dist=121.304 m V*=(3.65,1.38,-0.01) m/s v=14 km/h
  + X=9.858727455139 Y=53.5348534584 alt=3.021240234375 date=417952467 dist=102.676 m V*=(3.81,1,0) m/s v=14.2 km/h
  + X=9.857912063599 Y=53.53506803513 alt=3.021240234375 date=417952485 dist=58.932 m V*=(2.99,1.32,0) m/s v=11.7 km/h
  + X=9.857375621796 Y=53.5350894928 alt=3.021240234375 date=417952495 dist=35.531 m V*=(3.54,0.23,0) m/s v=12.7 km/h
  + X=9.855852127075 Y=53.53528261185 alt=2.540649414062 date=417952522 dist=102.946 m V*=(3.72,0.79,-0.01) m/s v=13.7 km/h
  + X=9.854521751404 Y=53.53551864624 alt=3.021240234375 date=417952546 dist=91.753 m V*=(3.66,1.09,0.02) m/s v=13.7 km/h
  + X=9.8530626297 Y=53.53579759598 alt=5.424560546875 date=417952573 dist=101.292 m V*=(3.57,1.14,0.08) m/s v=13.5 km/h
  + X=9.851903915405 Y=53.5360121727 alt=4.463256835938 date=417952595 dist=80.205 m V*=(3.48,1.08,-0.04) m/s v=13.1 km/h
  + X=9.850852489471 Y=53.53624820709 alt=4.94384765625 date=417952616 dist=74.275 m V*=(3.3,1.24,0.02) m/s v=12.7 km/h
  + X=9.849801063538 Y=53.53648424149 alt=3.982666015625 date=417952635 dist=74.274 m V*=(3.65,1.38,-0.05) m/s v=14 km/h
  + X=9.848577976227 Y=53.53665590286 alt=2.540649414062 date=417952656 dist=83.05 m V*=(3.84,0.9,-0.06) m/s v=14.2 km/h
  + X=9.847805500031 Y=53.53669881821 alt=2.540649414062 date=417952669 dist=51.27 m V*=(3.92,0.36,0) m/s v=14.1 km/h
  + X=9.847247600555 Y=53.53674173355 alt=2.540649414062 date=417952680 dist=37.175 m V*=(3.35,0.43,0) m/s v=12.1 km/h
  + X=9.846560955048 Y=53.53665590286 alt=2.540649414062 date=417952694 dist=46.369 m V*=(3.24,0.68,0) m/s v=11.9 km/h
  + X=9.845445156097 Y=53.53667736053 alt=2.540649414062 date=417952711 dist=73.775 m V*=(4.33,0.14,0) m/s v=15.6 km/h
  + X=9.843964576721 Y=53.53672027588 alt=1.0986328125 date=417952733 dist=97.958 m V*=(4.44,0.21,-0.06) m/s v=16 km/h
  + X=9.842784404755 Y=53.53674173355 alt=0.137451171875 date=417952752 dist=78.026 m V*=(4.1,0.12,-0.05) m/s v=14.7 km/h
  + X=9.841582775116 Y=53.53659152985 alt=0.137451171875 date=417952772 dist=81.146 m V*=(3.97,0.83,0) m/s v=14.6 km/h
  + X=9.840853214264 Y=53.53629112244 alt=-0.3433837890625 date=417952787 dist=58.653 m V*=(3.21,2.22,-0.03) m/s v=14 km/h
  + X=9.840402603149 Y=53.53609800339 alt=-0.3433837890625 date=417952802 dist=36.713 m V*=(1.98,1.43,0) m/s v=8.8 km/h
  + X=9.840338230133 Y=53.53611946106 alt=-0.3433837890625 date=417952816 dist=4.877 m V*=(0.3,0.17,0) m/s v=1.2 km/h
  + X=9.840338230133 Y=53.53614091873 alt=-0.3433837890625 date=417952826 dist=2.385 m V*=(0,0.23,0) m/s v=0.8 km/h
  + X=9.840273857117 Y=53.53620529175 alt=1.0986328125 date=417952843 dist=8.326 m V*=(0.25,0.42,0.08) m/s v=1.7 km/h
  + X=9.840252399445 Y=53.53622674942 alt=0.137451171875 date=417952862 dist=2.775 m V*=(0.07,0.12,-0.05) m/s v=0.5 km/h
  + X=9.840359687805 Y=53.53609800339 alt=-1.3046875 date=417953014 dist=15.975 m V*=(0.04,0.09,0) m/s v=0.3 km/h
  + X=9.840338230133 Y=53.53607654572 alt=-1.3046875 date=417953029 dist=2.775 m V*=(0.09,0.15,0) m/s v=0.6 km/h
  + X=9.840188026428 Y=53.5360121727 alt=-1.3046875 date=417953035 dist=12.237 m V*=(1.65,1.19,0) m/s v=7.3 km/h
  + X=9.839372634888 Y=53.5356259346 alt=-1.3046875 date=417953055 dist=68.906 m V*=(2.69,2.14,0) m/s v=12.4 km/h
  + X=9.838514328003 Y=53.5352396965 alt=-1.3046875 date=417953076 dist=71.147 m V*=(2.7,2.04,0) m/s v=12.1 km/h
  + X=9.837784767151 Y=53.53487491608 alt=-1.3046875 date=417953093 dist=63.006 m V*=(2.83,2.38,0) m/s v=13.3 km/h
  + X=9.837098121643 Y=53.53455305099 alt=-0.8240966796875 date=417953109 dist=57.793 m V*=(2.83,2.23,0.03) m/s v=13 km/h
  + X=9.836132526398 Y=53.53410243988 alt=-0.8240966796875 date=417953132 dist=81.134 m V*=(2.77,2.17,0) m/s v=12.6 km/h
  + X=9.835360050201 Y=53.53373765945 alt=-1.3046875 date=417953150 dist=65.203 m V*=(2.83,2.25,-0.02) m/s v=13 km/h
  + X=9.834523200989 Y=53.53335142136 alt=-1.3046875 date=417953169 dist=70.023 m V*=(2.91,2.26,0) m/s v=13.2 km/h
  + X=9.833793640137 Y=53.5330080986 alt=-1.3046875 date=417953185 dist=61.499 m V*=(3.01,2.38,0) m/s v=13.8 km/h
  + X=9.833085536957 Y=53.53268623352 alt=-1.3046875 date=417953201 dist=58.915 m V*=(2.92,2.23,0) m/s v=13.2 km/h
  + X=9.832184314728 Y=53.53225708008 alt=-0.8240966796875 date=417953222 dist=76.32 m V*=(2.83,2.27,0.02) m/s v=13 km/h
  + X=9.831175804138 Y=53.53176355362 alt=-1.3046875 date=417953245 dist=86.338 m V*=(2.89,2.38,-0.02) m/s v=13.5 km/h
  + X=9.830317497253 Y=53.5313129425 alt=-0.8240966796875 date=417953265 dist=75.687 m V*=(2.83,2.5,0.02) m/s v=13.6 km/h
  + X=9.829502105713 Y=53.53090524673 alt=-1.3046875 date=417953284 dist=70.423 m V*=(2.83,2.38,-0.02) m/s v=13.3 km/h
  + X=9.828686714172 Y=53.53049755096 alt=-1.3046875 date=417953303 dist=70.423 m V*=(2.83,2.38,0) m/s v=13.3 km/h
  + X=9.82784986496 Y=53.53008985519 alt=-1.3046875 date=417953322 dist=71.515 m V*=(2.91,2.38,0) m/s v=13.5 km/h
  + X=9.826862812042 Y=53.52961778641 alt=-1.3046875 date=417953345 dist=83.734 m V*=(2.83,2.28,0) m/s v=13.1 km/h
  + X=9.826154708862 Y=53.52944612503 alt=-0.8240966796875 date=417953359 dist=50.544 m V*=(3.34,1.36,0.03) m/s v=12.9 km/h
  + X=9.825403690338 Y=53.52921009064 alt=2.06005859375 date=417953376 dist=56.15 m V*=(2.91,1.54,0.16) m/s v=11.9 km/h
  + X=9.824974536896 Y=53.5290813446 alt=2.06005859375 date=417953391 dist=31.773 m V*=(1.89,0.95,0) m/s v=7.6 km/h
  + X=9.824266433716 Y=53.52890968323 alt=-1.3046875 date=417953403 dist=50.545 m V*=(3.9,1.59,-0.28) m/s v=15.1 km/h
  + X=9.823644161224 Y=53.52875947952 alt=-1.785278320312 date=417953411 dist=44.391 m V*=(5.14,2.08,-0.06) m/s v=19.9 km/h
  + X=9.822614192963 Y=53.52828741074 alt=-2.265991210938 date=417953430 dist=85.964 m V*=(3.58,2.76,-0.02) m/s v=16.2 km/h
  + X=9.821562767029 Y=53.528008461 alt=-2.265991210938 date=417953449 dist=76.104 m V*=(3.65,1.63,0) m/s v=14.4 km/h
  + X=9.820382595062 Y=53.528008461 alt=-2.746704101562 date=417953468 dist=78.006 m V*=(4.1,0,-0.02) m/s v=14.7 km/h
  + X=9.819266796112 Y=53.52818012238 alt=-3.227294921875 date=417953486 dist=76.181 m V*=(4.09,1.06,-0.02) m/s v=15.2 km/h
  + X=9.818065166473 Y=53.52837324142 alt=-2.746704101562 date=417953507 dist=82.276 m V*=(3.78,1.02,0.02) m/s v=14.1 km/h
  + X=9.817206859589 Y=53.52843761444 alt=-0.3433837890625 date=417953523 dist=57.181 m V*=(3.54,0.44,0.15) m/s v=12.8 km/h
  + X=9.816541671753 Y=53.52848052979 alt=2.06005859375 date=417953539 dist=44.225 m V*=(2.74,0.29,0.15) m/s v=9.9 km/h
  + X=9.816262722015 Y=53.52852344513 alt=3.982666015625 date=417953552 dist=19.045 m V*=(1.41,0.36,0.14) m/s v=5.3 km/h
  + X=9.815790653229 Y=53.52865219116 alt=1.579345703125 date=417953562 dist=34.329 m V*=(3.12,1.43,-0.24) m/s v=12.3 km/h
  + X=9.81529712677 Y=53.52880239487 alt=-0.3433837890625 date=417953568 dist=36.647 m V*=(5.43,2.78,-0.32) m/s v=22 km/h
  + X=9.814438819885 Y=53.52890968323 alt=-0.8240966796875 date=417953579 dist=57.971 m V*=(5.15,1.08,-0.04) m/s v=18.9 km/h
  + X=9.813086986542 Y=53.52912425995 alt=-1.3046875 date=417953598 dist=92.481 m V*=(4.7,1.25,-0.02) m/s v=17.5 km/h
  + X=9.81175661087 Y=53.52933883667 alt=-1.3046875 date=417953619 dist=91.111 m V*=(4.18,1.13,0) m/s v=15.6 km/h
  + X=9.810748100281 Y=53.52948904037 alt=-1.785278320312 date=417953637 dist=68.718 m V*=(3.7,0.92,-0.02) m/s v=13.7 km/h
  + X=9.809546470642 Y=53.52968215942 alt=-1.785278320312 date=417953657 dist=82.273 m V*=(3.97,1.07,0) m/s v=14.8 km/h
  + X=9.808323383331 Y=53.52987527847 alt=-1.785278320312 date=417953677 dist=83.643 m V*=(4.04,1.07,0) m/s v=15 km/h
  + X=9.807314872742 Y=53.53002548218 alt=-1.785278320312 date=417953694 dist=68.717 m V*=(3.92,0.98,0) m/s v=14.5 km/h
  + X=9.806370735168 Y=53.53013277054 alt=-1.785278320312 date=417953711 dist=63.532 m V*=(3.67,0.7,0) m/s v=13.4 km/h
  + X=9.805490970612 Y=53.53036880493 alt=-2.265991210938 date=417953728 dist=63.796 m V*=(3.42,1.54,-0.02) m/s v=13.5 km/h
  + X=9.804289340973 Y=53.53075504303 alt=-1.3046875 date=417953752 dist=90.288 m V*=(3.3,1.78,0.04) m/s v=13.5 km/h
  + X=9.802937507629 Y=53.53120565414 alt=-0.8240966796875 date=417953780 dist=102.437 m V*=(3.19,1.78,0.01) m/s v=13.1 km/h
  + X=9.801456928253 Y=53.5316991806 alt=-0.8240966796875 date=417953810 dist=112.192 m V*=(3.26,1.82,0) m/s v=13.4 km/h
  + X=9.799847602844 Y=53.53225708008 alt=1.0986328125 date=417953844 dist=123.131 m V*=(3.12,1.82,0.05) m/s v=13 km/h
  + X=9.798731803894 Y=53.53264331818 alt=1.579345703125 date=417953868 dist=85.338 m V*=(3.07,1.78,0.02) m/s v=12.8 km/h
  + X=9.7975730896 Y=53.53302955627 alt=1.579345703125 date=417953893 dist=87.8 m V*=(3.06,1.71,0) m/s v=12.6 km/h
  + X=9.796457290649 Y=53.53341579437 alt=1.579345703125 date=417953917 dist=85.337 m V*=(3.07,1.78,0) m/s v=12.8 km/h
  + X=9.795491695404 Y=53.53375911713 alt=1.0986328125 date=417953939 dist=74.362 m V*=(2.9,1.73,-0.02) m/s v=12.1 km/h
  + X=9.794676303864 Y=53.53401660919 alt=1.0986328125 date=417953958 dist=61.022 m V*=(2.83,1.5,0) m/s v=11.5 km/h
  + X=9.793860912323 Y=53.53429555893 alt=-0.3433837890625 date=417953982 dist=62.176 m V*=(2.24,1.29,-0.06) m/s v=9.3 km/h
  + X=9.793753623962 Y=53.5343170166 alt=-0.3433837890625 date=417953988 dist=7.481 m V*=(1.18,0.39,0) m/s v=4.4 km/h
  + X=9.793667793274 Y=53.53429555893 alt=-0.3433837890625 date=417953991 dist=6.153 m V*=(1.89,0.79,0) m/s v=7.3 km/h
  + X=9.793388843536 Y=53.53433847427 alt=0.6180419921875 date=417954000 dist=19.042 m V*=(2.04,0.53,0.1) m/s v=7.6 km/h
  + X=9.793152809143 Y=53.53435993195 alt=2.540649414062 date=417954008 dist=15.78 m V*=(1.94,0.29,0.24) m/s v=7.1 km/h
  + X=9.793088436127 Y=53.53435993195 alt=3.501953125 date=417954022 dist=4.254 m V*=(0.3,0,0.06) m/s v=1.1 km/h
  + X=9.793109893799 Y=53.53435993195 alt=3.021240234375 date=417954103 dist=1.418 m V*=(0.01,0,0) m/s v=0 km/h
  + X=9.792809486389 Y=53.53442430496 alt=2.540649414062 date=417954134 dist=21.104 m V*=(0.64,0.23,-0.01) m/s v=2.4 km/h
  + X=9.792165756226 Y=53.53466033936 alt=3.501953125 date=417954149 dist=49.987 m V*=(2.83,1.74,0.06) m/s v=11.9 km/h
  + X=9.791543483734 Y=53.53487491608 alt=4.463256835938 date=417954165 dist=47.544 m V*=(2.57,1.49,0.06) m/s v=10.6 km/h
  + X=9.790964126587 Y=53.53504657745 alt=3.021240234375 date=417954180 dist=42.782 m V*=(2.55,1.27,-0.09) m/s v=10.2 km/h
  + X=9.790771007538 Y=53.5350894928 alt=2.06005859375 date=417954187 dist=13.625 m V*=(1.82,0.68,-0.13) m/s v=7 km/h
  + X=9.790041446686 Y=53.53532552719 alt=4.94384765625 date=417954205 dist=54.894 m V*=(2.67,1.45,0.16) m/s v=10.9 km/h
  + X=9.789440631866 Y=53.53556156158 alt=3.501953125 date=417954217 dist=47.595 m V*=(3.3,2.18,-0.12) m/s v=14.2 km/h
  + X=9.78926897049 Y=53.53564739227 alt=2.540649414062 date=417954220 dist=14.825 m V*=(3.78,3.18,-0.32) m/s v=17.8 km/h
  + X=9.788603782654 Y=53.53579759598 alt=3.021240234375 date=417954233 dist=47.025 m V*=(3.38,1.28,0.03) m/s v=13 km/h
  + X=9.788002967834 Y=53.53592634201 alt=3.021240234375 date=417954245 dist=42.207 m V*=(3.3,1.19,0) m/s v=12.6 km/h
  + X=9.78714466095 Y=53.5361623764 alt=2.06005859375 date=417954264 dist=62.499 m V*=(2.98,1.38,-0.05) m/s v=11.8 km/h
  + X=9.786479473114 Y=53.53633403778 alt=1.579345703125 date=417954280 dist=47.924 m V*=(2.74,1.19,-0.03) m/s v=10.7 km/h
  + X=9.785878658295 Y=53.53652715683 alt=1.579345703125 date=417954295 dist=45.139 m V*=(2.64,1.43,0) m/s v=10.8 km/h
  + X=9.785149097443 Y=53.53676319122 alt=1.0986328125 date=417954313 dist=54.893 m V*=(2.67,1.45,-0.02) m/s v=10.9 km/h
  + X=9.784290790558 Y=53.53704214096 alt=0.137451171875 date=417954335 dist=64.647 m V*=(2.57,1.4,-0.04) m/s v=10.5 km/h
  + X=9.783539772034 Y=53.53729963303 alt=0.137451171875 date=417954353 dist=57.296 m V*=(2.75,1.59,0) m/s v=11.4 km/h
  + X=9.78289604187 Y=53.53753566742 alt=0.137451171875 date=417954369 dist=49.984 m V*=(2.65,1.64,0) m/s v=11.2 km/h
  + X=9.78208065033 Y=53.5378575325 alt=0.137451171875 date=417954387 dist=64.686 m V*=(2.99,1.98,0) m/s v=12.9 km/h
  + X=9.781243801117 Y=53.53815793991 alt=-0.3433837890625 date=417954407 dist=64.606 m V*=(2.76,1.67,-0.02) m/s v=11.6 km/h
  + X=9.780492782593 Y=53.53847980499 alt=0.137451171875 date=417954424 dist=61.187 m V*=(2.91,2.1,0.02) m/s v=12.9 km/h
  + X=9.77965593338 Y=53.53882312775 alt=-1.3046875 date=417954443 dist=67.197 m V*=(2.91,2,-0.07) m/s v=12.7 km/h
  + X=9.77884054184 Y=53.5391664505 alt=-0.8240966796875 date=417954462 dist=66.034 m V*=(2.83,2,0.02) m/s v=12.5 km/h
  + X=9.777896404266 Y=53.5395526886 alt=-1.3046875 date=417954482 dist=75.741 m V*=(3.11,2.14,-0.02) m/s v=13.6 km/h
  + X=9.776995182037 Y=53.53991746902 alt=-0.8240966796875 date=417954502 dist=72.053 m V*=(2.97,2.02,0.02) m/s v=12.9 km/h
  + X=9.776201248169 Y=53.54023933411 alt=-0.3433837890625 date=417954521 dist=63.507 m V*=(2.76,1.88,0.02) m/s v=12 km/h
  + X=9.775536060333 Y=53.54051828384 alt=-0.8240966796875 date=417954538 dist=53.796 m V*=(2.58,1.82,-0.02) m/s v=11.3 km/h
  + X=9.77489233017 Y=53.54084014893 alt=-0.3433837890625 date=417954556 dist=55.589 m V*=(2.36,1.98,0.02) m/s v=11.1 km/h
  + X=9.774205684662 Y=53.54116201401 alt=0.137451171875 date=417954573 dist=57.788 m V*=(2.66,2.1,0.02) m/s v=12.2 km/h
  + X=9.773540496826 Y=53.54150533676 alt=0.137451171875 date=417954589 dist=58.217 m V*=(2.74,2.38,0) m/s v=13 km/h
  + X=9.772746562958 Y=53.54195594788 alt=0.137451171875 date=417954610 dist=72.544 m V*=(2.49,2.38,0) m/s v=12.4 km/h
  + X=9.77205991745 Y=53.54234218597 alt=0.137451171875 date=417954629 dist=62.473 m V*=(2.38,2.26,0) m/s v=11.8 km/h
  + X=9.771373271942 Y=53.54274988174 alt=0.137451171875 date=417954648 dist=64.137 m V*=(2.38,2.38,0) m/s v=12.1 km/h
  + X=9.770536422729 Y=53.54328632355 alt=0.137451171875 date=417954671 dist=81.335 m V*=(2.4,2.59,0) m/s v=12.7 km/h
  + X=9.769849777222 Y=53.54375839233 alt=0.137451171875 date=417954691 dist=69.38 m V*=(2.26,2.62,0) m/s v=12.4 km/h
  + X=9.769356250763 Y=53.54405879974 alt=0.137451171875 date=417954706 dist=46.681 m V*=(2.17,2.22,0) m/s v=11.2 km/h
  + X=9.76881980896 Y=53.54446649551 alt=-1.3046875 date=417954724 dist=57.544 m V*=(1.96,2.51,-0.08) m/s v=11.5 km/h
  + X=9.768390655518 Y=53.54498147964 alt=-5.630493164062 date=417954733 dist=63.899 m V*=(3.15,6.36,-0.48) m/s v=25.6 km/h
  + X=9.767789840698 Y=53.54534626007 alt=-5.630493164062 date=417954743 dist=56.754 m V*=(3.96,4.05,0) m/s v=20.4 km/h
  + X=9.766931533813 Y=53.54590415955 alt=-5.630493164062 date=417954763 dist=84.049 m V*=(2.83,3.1,0) m/s v=15.1 km/h
  + X=9.766223430634 Y=53.54635477066 alt=-5.630493164062 date=417954782 dist=68.551 m V*=(2.46,2.63,0) m/s v=12.9 km/h
  + X=9.765429496765 Y=53.54659080505 alt=-5.630493164062 date=417954799 dist=58.653 m V*=(3.08,1.54,0) m/s v=12.4 km/h
  + X=9.764528274536 Y=53.5466337204 alt=-5.630493164062 date=417954815 dist=59.733 m V*=(3.72,0.29,0) m/s v=13.4 km/h
  + X=9.763519763947 Y=53.54661226273 alt=-5.630493164062 date=417954832 dist=66.673 m V*=(3.91,0.14,0) m/s v=14.1 km/h
  + X=9.762318134308 Y=53.54656934738 alt=-5.630493164062 date=417954852 dist=79.533 m V*=(3.96,0.23,0) m/s v=14.3 km/h
  + X=9.761073589325 Y=53.54654788971 alt=-5.630493164062 date=417954876 dist=82.259 m V*=(3.42,0.09,0) m/s v=12.3 km/h
  + X=9.759957790375 Y=53.54652643204 alt=-5.630493164062 date=417954896 dist=73.757 m V*=(3.68,0.11,0) m/s v=13.2 km/h
  + X=9.758841991425 Y=53.54652643204 alt=-5.630493164062 date=417954916 dist=73.719 m V*=(3.68,0,0) m/s v=13.2 km/h
  + X=9.757854938507 Y=53.54650497437 alt=-6.111206054688 date=417954934 dist=65.256 m V*=(3.62,0.13,-0.02) m/s v=13 km/h
  + X=9.756610393524 Y=53.54650497437 alt=-6.111206054688 date=417954957 dist=82.225 m V*=(3.57,0,0) m/s v=12.8 km/h
  + X=9.75555896759 Y=53.54650497437 alt=-6.591918945312 date=417954977 dist=69.466 m V*=(3.47,0,-0.02) m/s v=12.5 km/h
  + X=9.754486083984 Y=53.54654788971 alt=-7.072509765625 date=417954997 dist=71.044 m V*=(3.54,0.23,-0.02) m/s v=12.7 km/h
  + X=9.754121303558 Y=53.54654788971 alt=-7.072509765625 date=417955008 dist=24.1 m V*=(2.19,0,0) m/s v=7.8 km/h
  + X=9.753456115723 Y=53.54659080505 alt=-6.591918945312 date=417955028 dist=44.206 m V*=(2.19,0.23,0.02) m/s v=7.9 km/h
  + X=9.75291967392 Y=53.5466337204 alt=-7.072509765625 date=417955041 dist=35.761 m V*=(2.72,0.36,-0.03) m/s v=9.9 km/h
  + X=9.752233028412 Y=53.54665517807 alt=-7.072509765625 date=417955058 dist=45.428 m V*=(2.66,0.14,0) m/s v=9.6 km/h
  + X=9.751589298248 Y=53.54665517807 alt=-6.591918945312 date=417955074 dist=42.53 m V*=(2.65,0,0.03) m/s v=9.5 km/h
  + X=9.751031398773 Y=53.54667663574 alt=-6.591918945312 date=417955085 dist=36.936 m V*=(3.35,0.21,0) m/s v=12 km/h
  + X=9.750301837921 Y=53.54665517807 alt=-6.591918945312 date=417955099 dist=48.259 m V*=(3.44,0.17,0) m/s v=12.4 km/h
  + X=9.750301837921 Y=53.54665517807 alt=-6.111206054688 date=417955126 dist=0 m V*=(0,0,0.01) m/s v=0 km/h
  + X=9.750301837921 Y=53.54665517807 alt=-4.669311523438 date=417955315 dist=0 m V*=(0,0,0) m/s v=0 km/h
  + X=9.750301837921 Y=53.5466337204 alt=-7.553100585938 date=417955552 dist=2.385 m V*=(0,0.01,-0.01) m/s v=0 km/h
  + X=9.750258922577 Y=53.54665517807 alt=-7.072509765625 date=417955673 dist=3.705 m V*=(0.02,0.01,0) m/s v=0.1 km/h
  + X=9.750237464905 Y=53.54665517807 alt=-6.591918945312 date=417955689 dist=1.417 m V*=(0.08,0,0.03) m/s v=0.3 km/h
  + X=9.750108718872 Y=53.54665517807 alt=-5.14990234375 date=417955730 dist=8.506 m V*=(0.2,0,0.03) m/s v=0.7 km/h
  + X=9.74937915802 Y=53.54665517807 alt=-5.630493164062 date=417955744 dist=48.2 m V*=(3.44,0,-0.03) m/s v=12.3 km/h
  + X=9.74826335907 Y=53.54669809341 alt=-6.111206054688 date=417955761 dist=73.873 m V*=(4.33,0.28,-0.02) m/s v=15.6 km/h
  + X=9.746890068054 Y=53.54674100876 alt=-6.111206054688 date=417955782 dist=90.856 m V*=(4.32,0.22,0) m/s v=15.5 km/h
  + X=9.745860099792 Y=53.54691267014 alt=-6.591918945312 date=417955798 dist=70.674 m V*=(4.25,1.19,-0.03) m/s v=15.9 km/h
  + X=9.744637012482 Y=53.54719161987 alt=-6.591918945312 date=417955818 dist=86.555 m V*=(4.04,1.55,0) m/s v=15.5 km/h
  + X=9.743671417236 Y=53.54742765427 alt=-6.591918945312 date=417955836 dist=68.982 m V*=(3.54,1.45,0) m/s v=13.7 km/h
  + X=9.743413925171 Y=53.54747056961 alt=-6.111206054688 date=417955841 dist=17.668 m V*=(3.4,0.95,0.09) m/s v=12.7 km/h
  + X=9.743456840515 Y=53.54738473892 alt=-5.14990234375 date=417955846 dist=9.956 m V*=(0.56,1.9,0.19) m/s v=7.2 km/h
  + X=9.744229316711 Y=53.54706287384 alt=-1.785278320312 date=417955864 dist=62.334 m V*=(2.83,1.98,0.18) m/s v=12.4 km/h
  + X=9.744594097137 Y=53.54693412781 alt=-0.8240966796875 date=417955878 dist=28.031 m V*=(1.72,1.02,0.06) m/s v=7.2 km/h
  + X=9.745216369629 Y=53.54669809341 alt=-2.746704101562 date=417955890 dist=48.775 m V*=(3.42,2.18,-0.16) m/s v=14.6 km/h
  + X=9.745688438416 Y=53.54650497437 alt=-5.14990234375 date=417955896 dist=37.866 m V*=(5.19,3.57,-0.4) m/s v=22.7 km/h
  + X=9.745688438416 Y=53.54637622833 alt=-5.630493164062 date=417955901 dist=14.315 m V*=(0,2.86,-0.09) m/s v=10.3 km/h
  + X=9.745666980743 Y=53.54633331299 alt=-5.630493164062 date=417955913 dist=4.978 m V*=(0.11,0.39,0) m/s v=1.4 km/h
  + X=9.745216369629 Y=53.54626893997 alt=-5.630493164062 date=417955923 dist=30.619 m V*=(2.97,0.71,0) m/s v=11 km/h
  + X=9.744057655334 Y=53.54614019394 alt=-5.630493164062 date=417955943 dist=77.882 m V*=(3.82,0.71,0) m/s v=14 km/h
  + X=9.74289894104 Y=53.54568958282 alt=-5.630493164062 date=417955965 dist=91.495 m V*=(3.47,2.27,0) m/s v=14.9 km/h
  + X=9.742255210876 Y=53.54536771774 alt=-6.591918945312 date=417955980 dist=55.586 m V*=(2.83,2.38,-0.06) m/s v=13.3 km/h
  + X=9.741826057434 Y=53.54521751404 alt=-6.111206054688 date=417955990 dist=32.907 m V*=(2.83,1.67,0.04) m/s v=11.8 km/h
  + X=9.740796089172 Y=53.54480981827 alt=-6.591918945312 date=417956010 dist=81.768 m V*=(3.4,2.26,-0.02) m/s v=14.7 km/h
  + X=9.739744663239 Y=53.54442358017 alt=-6.591918945312 date=417956029 dist=81.673 m V*=(3.65,2.26,0) m/s v=15.4 km/h
  + X=9.738693237305 Y=53.5440158844 alt=-6.591918945312 date=417956048 dist=82.953 m V*=(3.65,2.38,0) m/s v=15.7 km/h
  + X=9.737641811371 Y=53.54343652725 alt=-4.669311523438 date=417956069 dist=94.743 m V*=(3.3,3.06,0.09) m/s v=16.2 km/h
  + X=9.736869335175 Y=53.54281425476 alt=-4.669311523438 date=417956088 dist=85.981 m V*=(2.68,3.64,0) m/s v=16.2 km/h
  + X=9.736182689667 Y=53.54199886322 alt=-4.669311523438 date=417956110 dist=101.385 m V*=(2.06,4.12,0) m/s v=16.5 km/h
  + X=9.735517501831 Y=53.54114055634 alt=-5.630493164062 date=417956133 dist=105.074 m V*=(1.91,4.14,-0.04) m/s v=16.4 km/h
  + X=9.734766483307 Y=53.54064702988 alt=-5.630493164062 date=417956149 dist=73.988 m V*=(3.1,3.42,0) m/s v=16.6 km/h
  + X=9.733564853668 Y=53.54017496109 alt=-5.14990234375 date=417956171 dist=95.183 m V*=(3.6,2.38,0.02) m/s v=15.5 km/h
  + X=9.732663631439 Y=53.53996038437 alt=-5.630493164062 date=417956190 dist=64.153 m V*=(3.13,1.25,-0.02) m/s v=12.1 km/h
  + X=9.731676578522 Y=53.53985309601 alt=-5.630493164062 date=417956209 dist=66.305 m V*=(3.43,0.62,0) m/s v=12.5 km/h
  + X=9.730560779572 Y=53.53968143463 alt=-6.111206054688 date=417956229 dist=76.161 m V*=(3.68,0.95,-0.02) m/s v=13.7 km/h
  + X=9.729552268982 Y=53.53944540024 alt=-6.591918945312 date=417956247 dist=71.623 m V*=(3.7,1.45,-0.02) m/s v=14.3 km/h
  + X=9.728350639343 Y=53.53905916214 alt=-5.630493164062 date=417956269 dist=90.274 m V*=(3.6,1.95,0.04) m/s v=14.7 km/h
  + X=9.727127552032 Y=53.53869438171 alt=-6.591918945312 date=417956291 dist=90.429 m V*=(3.67,1.84,-0.04) m/s v=14.7 km/h
  + X=9.726119041443 Y=53.53850126266 alt=-6.591918945312 date=417956308 dist=70.017 m V*=(3.92,1.26,0) m/s v=14.8 km/h
  + X=9.724724292755 Y=53.5383939743 alt=-6.591918945312 date=417956331 dist=92.935 m V*=(4,0.51,0) m/s v=14.5 km/h
  + X=9.723393917084 Y=53.5383939743 alt=-7.072509765625 date=417956353 dist=87.913 m V*=(3.99,0,-0.02) m/s v=14.3 km/h
  + X=9.721870422363 Y=53.5383939743 alt=-9.475830078125 date=417956378 dist=100.674 m V*=(4.02,0,-0.09) m/s v=14.5 km/h
  + X=9.720776081085 Y=53.53843688965 alt=-9.475830078125 date=417956397 dist=72.472 m V*=(3.8,0.25,0) m/s v=13.7 km/h
  + X=9.719746112823 Y=53.53852272034 alt=-8.995239257812 date=417956415 dist=68.727 m V*=(3.78,0.53,0.02) m/s v=13.7 km/h
  + X=9.718565940857 Y=53.53865146637 alt=-9.95654296875 date=417956436 dist=79.29 m V*=(3.71,0.68,-0.04) m/s v=13.5 km/h
  + X=9.717750549316 Y=53.53869438171 alt=-9.95654296875 date=417956454 dist=54.092 m V*=(2.99,0.26,0) m/s v=10.8 km/h
  + X=9.716849327087 Y=53.53860855103 alt=-9.475830078125 date=417956476 dist=60.313 m V*=(2.7,0.43,0.02) m/s v=9.8 km/h
  + X=9.715883731842 Y=53.5383939743 alt=-8.995239257812 date=417956497 dist=68.122 m V*=(3.03,1.13,0.02) m/s v=11.6 km/h
  + X=9.71485376358 Y=53.53813648224 alt=-8.995239257812 date=417956518 dist=73.839 m V*=(3.24,1.36,0) m/s v=12.6 km/h
  + X=9.713931083679 Y=53.53792190552 alt=-9.475830078125 date=417956536 dist=65.474 m V*=(3.38,1.32,-0.02) m/s v=13 km/h
  + X=9.712686538696 Y=53.53766441345 alt=-8.995239257812 date=417956559 dist=87.083 m V*=(3.57,1.24,0.02) m/s v=13.6 km/h
  + X=9.711313247681 Y=53.53749275208 alt=-8.995239257812 date=417956584 dist=92.736 m V*=(3.63,0.76,0) m/s v=13.3 km/h
  + X=9.710154533386 Y=53.53744983673 alt=-8.995239257812 date=417956604 dist=76.719 m V*=(3.82,0.23,0) m/s v=13.8 km/h
  + X=9.708867073059 Y=53.5374712944 alt=-8.995239257812 date=417956626 dist=85.112 m V*=(3.86,0.1,0) m/s v=13.9 km/h
  + X=9.707794189453 Y=53.53751420975 alt=-9.475830078125 date=417956644 dist=71.059 m V*=(3.93,0.26,-0.02) m/s v=14.2 km/h
  + X=9.706592559814 Y=53.53755712509 alt=-9.95654296875 date=417956664 dist=79.55 m V*=(3.97,0.23,-0.02) m/s v=14.3 km/h
  + X=9.705605506897 Y=53.53757858276 alt=-9.95654296875 date=417956681 dist=65.27 m V*=(3.83,0.14,0) m/s v=13.8 km/h
  + X=9.704232215881 Y=53.53762149811 alt=-9.95654296875 date=417956703 dist=90.876 m V*=(4.12,0.21,0) m/s v=14.8 km/h
  + X=9.702858924866 Y=53.53775024414 alt=-9.475830078125 date=417956726 dist=91.872 m V*=(3.94,0.62,0.02) m/s v=14.3 km/h
  + X=9.701850414276 Y=53.53794336319 alt=-8.995239257812 date=417956745 dist=70.018 m V*=(3.5,1.13,0.02) m/s v=13.2 km/h
  + X=9.700841903687 Y=53.53828668594 alt=-9.475830078125 date=417956765 dist=76.803 m V*=(3.33,1.9,-0.02) m/s v=13.8 km/h
  + X=9.699833393097 Y=53.53869438171 alt=-9.475830078125 date=417956786 dist=80.6 m V*=(3.17,2.15,0) m/s v=13.8 km/h
  + X=9.698503017426 Y=53.5390162468 alt=-9.95654296875 date=417956810 dist=94.918 m V*=(3.66,1.49,-0.02) m/s v=14.2 km/h
  + X=9.697387218475 Y=53.53920936584 alt=-10.43725585938 date=417956830 dist=76.795 m V*=(3.68,1.07,-0.02) m/s v=13.8 km/h
  + X=9.696507453918 Y=53.53933811188 alt=-9.95654296875 date=417956847 dist=59.871 m V*=(3.41,0.84,0.02) m/s v=12.6 km/h
  + X=9.696271419525 Y=53.53923082352 alt=-9.95654296875 date=417956853 dist=19.636 m V*=(2.59,1.98,0) m/s v=11.7 km/h
  + X=9.696357250214 Y=53.53923082352 alt=-10.43725585938 date=417956860 dist=5.671 m V*=(0.81,0,-0.06) m/s v=2.9 km/h
  + X=9.696357250214 Y=53.53923082352 alt=-10.43725585938 date=417956895 dist=0 m V*=(0,0,0) m/s v=0 km/h
  + X=9.696357250214 Y=53.53923082352 alt=-10.43725585938 date=417956901 dist=0 m V*=(0,0,0) m/s v=0 km/h
  + X=9.695842266083 Y=53.53927373886 alt=-9.95654296875 date=417956913 dist=34.363 m V*=(2.83,0.39,0.04) m/s v=10.3 km/h
  + X=9.69470500946 Y=53.53942394257 alt=-9.95654296875 date=417956935 dist=76.983 m V*=(3.41,0.75,0) m/s v=12.5 km/h
  + X=9.69388961792 Y=53.53953123093 alt=-9.95654296875 date=417956953 dist=55.185 m V*=(2.99,0.66,0) m/s v=11 km/h
  + X=9.692966938019 Y=53.53959560394 alt=-9.95654296875 date=417956971 dist=61.388 m V*=(3.38,0.39,0) m/s v=12.2 km/h
  + X=9.692623615265 Y=53.53959560394 alt=-10.43725585938 date=417956977 dist=22.686 m V*=(3.78,0,-0.08) m/s v=13.6 km/h
  + X=9.692537784576 Y=53.53974580765 alt=-9.475830078125 date=417956985 dist=17.638 m V*=(0.7,2.08,0.12) m/s v=7.9 km/h
  + X=9.692580699921 Y=53.53974580765 alt=-9.475830078125 date=417956986 dist=2.835 m V*=(2.83,0,0) m/s v=10.2 km/h
  + X=9.692902565002 Y=53.53974580765 alt=-8.5146484375 date=417957000 dist=21.268 m V*=(1.51,0,0.06) m/s v=5.4 km/h
  + X=9.692945480347 Y=53.53976726532 alt=-6.591918945312 date=417957085 dist=3.706 m V*=(0.03,0.02,0.02) m/s v=0.1 km/h
 ** X=9.692838191986 Y=53.53968143463 alt=-44.56396484375 date=417961322 dist=11.888 m
  + X=9.692816734314 Y=53.53959560394 alt=-47.44787597656 date=417961352 dist=9.648 m V*=(0.04,0.31,-0.09) m/s v=1.2 km/h
  + X=9.692838191986 Y=53.53961706161 alt=-44.56396484375 date=417961366 dist=2.775 m V*=(0.1,0.17,0.2) m/s v=1 km/h
  + X=9.692838191986 Y=53.53968143463 alt=-25.818359375 date=417961435 dist=7.157 m V*=(0,0.1,0.27) m/s v=1 km/h
  + X=9.692795276642 Y=53.5397028923 alt=-25.33764648438 date=417961439 dist=3.706 m V*=(0.7,0.59,0.12) m/s v=3.3 km/h
  + X=9.692194461823 Y=53.53974580765 alt=-24.85693359375 date=417961453 dist=39.987 m V*=(2.83,0.34,0.03) m/s v=10.2 km/h
  + X=9.691894054413 Y=53.53978872299 alt=-23.89562988281 date=417961458 dist=20.416 m V*=(3.97,0.95,0.19) m/s v=14.7 km/h
  + X=9.691679477692 Y=53.53981018066 alt=-22.93420410156 date=417961461 dist=14.378 m V*=(4.72,0.79,0.32) m/s v=17.2 km/h
  + X=9.691164493561 Y=53.53985309601 alt=-22.93420410156 date=417961470 dist=34.362 m V*=(3.78,0.53,0) m/s v=13.7 km/h
  + X=9.691121578217 Y=53.53987455368 alt=-21.49230957031 date=417961475 dist=3.706 m V*=(0.56,0.47,0.28) m/s v=2.8 km/h
  + X=9.69094991684 Y=53.53983163834 alt=-21.49230957031 date=417961480 dist=12.306 m V*=(2.26,0.95,0) m/s v=8.8 km/h
  + X=9.690542221069 Y=53.53946685791 alt=-19.56970214844 date=417961492 dist=48.693 m V*=(2.24,3.38,0.16) m/s v=14.6 km/h
  + X=9.690456390381 Y=53.53935956955 alt=-19.08898925781 date=417961495 dist=13.209 m V*=(1.89,3.97,0.16) m/s v=15.8 km/h
  + X=9.690370559692 Y=53.53914499283 alt=-18.6083984375 date=417961500 dist=24.524 m V*=(1.13,4.77,0.09) m/s v=17.6 km/h
  + X=9.690113067627 Y=53.53837251663 alt=-17.64709472656 date=417961515 dist=87.564 m V*=(1.13,5.72,0.06) m/s v=21 km/h
  + X=9.689898490906 Y=53.53809356689 alt=-16.68579101562 date=417961527 dist=34.105 m V*=(1.18,2.58,0.08) m/s v=10.2 km/h
  + X=9.689877033234 Y=53.53807210922 alt=-16.20520019531 date=417961528 dist=2.775 m V*=(1.41,2.38,0.48) m/s v=10.1 km/h
  + X=9.68923330307 Y=53.53790044785 alt=-15.24365234375 date=417961540 dist=46.625 m V*=(3.54,1.59,0.08) m/s v=13.9 km/h
  + X=9.687838554382 Y=53.53723526001 alt=-13.8017578125 date=417961565 dist=118.177 m V*=(3.68,2.95,0.05) m/s v=17 km/h
  + X=9.686915874481 Y=53.53676319122 alt=-11.3984375 date=417961586 dist=80.456 m V*=(2.9,2.49,0.11) m/s v=13.7 km/h
  + X=9.685564041138 Y=53.53620529175 alt=-11.3984375 date=417961611 dist=108.761 m V*=(3.57,2.48,0) m/s v=15.6 km/h
  + X=9.684340953827 Y=53.5354757309 alt=-10.91784667969 date=417961639 dist=114.517 m V*=(2.88,2.89,0.01) m/s v=14.7 km/h
  + X=9.682967662811 Y=53.53455305099 alt=-9.95654296875 date=417961671 dist=136.977 m V*=(2.83,3.2,0.03) m/s v=15.4 km/h
  + X=9.6817445755 Y=53.53369474411 alt=-10.91784667969 date=417961701 dist=125.069 m V*=(2.69,3.18,-0.03) m/s v=15 km/h
  + X=9.681851863861 Y=53.53354454041 alt=-10.43725585938 date=417961706 dist=18.144 m V*=(1.41,3.34,0.09) m/s v=13 km/h
  + X=9.681980609894 Y=53.53345870972 alt=-10.43725585938 date=417961710 dist=12.786 m V*=(2.12,2.38,0) m/s v=11.5 km/h
  + X=9.681980609894 Y=53.53330850601 alt=-9.95654296875 date=417961715 dist=16.701 m V*=(0,3.34,0.09) m/s v=12 km/h
  + X=9.68163728714 Y=53.53283643723 alt=-9.475830078125 date=417961732 dist=57.185 m V*=(1.33,3.08,0.02) m/s v=12.1 km/h
  + X=9.681594371796 Y=53.53277206421 alt=-8.995239257812 date=417961745 dist=7.699 m V*=(0.21,0.55,0.03) m/s v=2.1 km/h
  + X=9.681594371796 Y=53.53275060654 alt=-8.5146484375 date=417961772 dist=2.385 m V*=(0,0.08,0.01) m/s v=0.3 km/h
  + X=9.682152271271 Y=53.53253602982 alt=-8.5146484375 date=417961785 dist=43.918 m V*=(2.83,1.83,0) m/s v=12.1 km/h
  + X=9.683225154877 Y=53.53225708008 alt=-7.553100585938 date=417961805 dist=77.395 m V*=(3.54,1.55,0.04) m/s v=13.9 km/h
  + X=9.68416929245 Y=53.53204250336 alt=-7.072509765625 date=417961825 dist=66.805 m V*=(3.11,1.19,0.02) m/s v=12 km/h
  + X=9.68446969986 Y=53.53197813034 alt=-7.553100585938 date=417961850 dist=21.105 m V*=(0.79,0.28,-0.01) m/s v=3 km/h
  + X=9.685091972351 Y=53.53187084198 alt=-7.553100585938 date=417961863 dist=42.822 m V*=(3.16,0.91,0) m/s v=11.8 km/h
  + X=9.685521125793 Y=53.5316991806 alt=-7.553100585938 date=417961875 dist=34.188 m V*=(2.36,1.59,0) m/s v=10.2 km/h
  + X=9.686529636383 Y=53.53144168854 alt=-8.033935546875 date=417961890 dist=72.543 m V*=(4.44,1.9,-0.03) m/s v=17.4 km/h
  + X=9.687752723694 Y=53.5311627388 alt=-8.033935546875 date=417961909 dist=86.583 m V*=(4.25,1.63,0) m/s v=16.4 km/h
  + X=9.687881469727 Y=53.53114128113 alt=-8.033935546875 date=417961911 dist=8.837 m V*=(4.25,1.19,0) m/s v=15.9 km/h
  + X=9.687924385071 Y=53.53092670441 alt=-8.033935546875 date=417961917 dist=24.027 m V*=(0.47,3.97,0) m/s v=14.4 km/h
  + X=9.687387943268 Y=53.5302400589 alt=-8.5146484375 date=417961937 dist=84.182 m V*=(1.77,3.81,-0.02) m/s v=15.1 km/h
  + X=9.687194824219 Y=53.52993965149 alt=-8.5146484375 date=417961946 dist=35.759 m V*=(1.41,3.71,0) m/s v=14.3 km/h
  + X=9.687495231628 Y=53.5298538208 alt=-8.5146484375 date=417961951 dist=22.029 m V*=(3.97,1.9,0) m/s v=15.8 km/h
  + X=9.688053131104 Y=53.5297036171 alt=-8.5146484375 date=417961959 dist=40.48 m V*=(4.6,2.08,0) m/s v=18.2 km/h
  + X=9.688289165497 Y=53.52961778641 alt=-8.5146484375 date=417961963 dist=18.288 m V*=(3.9,2.38,0) m/s v=16.4 km/h
  + X=9.689147472382 Y=53.52936029434 alt=-8.5146484375 date=417961978 dist=63.545 m V*=(3.78,1.9,0) m/s v=15.2 km/h
  + X=9.689984321594 Y=53.52914571762 alt=-8.995239257812 date=417961993 dist=60.238 m V*=(3.68,1.59,-0.03) m/s v=14.4 km/h
  + X=9.690971374512 Y=53.52886676788 alt=-8.995239257812 date=417962009 dist=72.238 m V*=(4.07,1.93,0) m/s v=16.2 km/h
  + X=9.691143035889 Y=53.52882385254 alt=-8.995239257812 date=417962012 dist=12.308 m V*=(3.78,1.59,0) m/s v=14.7 km/h
  + X=9.691915512085 Y=53.52856636047 alt=-8.995239257812 date=417962026 dist=58.537 m V*=(3.64,2.04,0) m/s v=15 km/h
  + X=9.69217300415 Y=53.52845907211 alt=-9.475830078125 date=417962031 dist=20.784 m V*=(3.4,2.38,-0.09) m/s v=14.9 km/h
  + X=9.692430496216 Y=53.5283946991 alt=-9.475830078125 date=417962035 dist=18.463 m V*=(4.25,1.78,0) m/s v=16.6 km/h
  + X=9.693546295166 Y=53.52818012238 alt=-8.995239257812 date=417962052 dist=77.514 m V*=(4.33,1.4,0.02) m/s v=16.4 km/h
  + X=9.694576263428 Y=53.528008461 alt=-8.995239257812 date=417962069 dist=70.703 m V*=(4,1.12,0) m/s v=14.9 km/h
  + X=9.695069789886 Y=53.52792263031 alt=-8.5146484375 date=417962082 dist=33.988 m V*=(2.5,0.73,0.03) m/s v=9.4 km/h
  + X=9.695091247559 Y=53.52790117264 alt=-8.5146484375 date=417962084 dist=2.775 m V*=(0.7,1.19,0) m/s v=4.9 km/h
  + X=9.695069789886 Y=53.52792263031 alt=-8.995239257812 date=417962092 dist=2.775 m V*=(0.17,0.29,-0.06) m/s v=1.2 km/h
  + X=9.69489812851 Y=53.52794408798 alt=-8.5146484375 date=417962102 dist=11.594 m V*=(1.13,0.23,0.04) m/s v=4.1 km/h
  + X=9.694941043854 Y=53.52792263031 alt=-8.5146484375 date=417962113 dist=3.706 m V*=(0.25,0.21,0) m/s v=1.2 km/h
  + X=9.695477485657 Y=53.52779388428 alt=-8.5146484375 date=417962126 dist=38.238 m V*=(2.72,1.1,0) m/s v=10.5 km/h
  + X=9.696614742279 Y=53.52753639221 alt=-8.995239257812 date=417962146 dist=80.438 m V*=(3.75,1.43,-0.02) m/s v=14.4 km/h
  + X=9.697494506836 Y=53.52736473083 alt=-8.995239257812 date=417962162 dist=61.203 m V*=(3.63,1.19,0) m/s v=13.7 km/h
  + X=9.698438644409 Y=53.52712869644 alt=-8.995239257812 date=417962181 dist=67.7 m V*=(3.28,1.38,0) m/s v=12.8 km/h
  + X=9.699189662933 Y=53.5268497467 alt=-8.995239257812 date=417962197 dist=58.535 m V*=(3.1,1.93,0) m/s v=13.1 km/h
  + X=9.700262546539 Y=53.52646350861 alt=-8.995239257812 date=417962218 dist=82.908 m V*=(3.37,2.04,0) m/s v=14.2 km/h
  + X=9.700627326965 Y=53.52629184723 alt=-8.995239257812 date=417962226 dist=30.752 m V*=(3.01,2.38,0) m/s v=13.8 km/h
  + X=9.701507091522 Y=53.5259270668 alt=-9.475830078125 date=417962243 dist=70.901 m V*=(3.42,2.38,-0.02) m/s v=15 km/h
  + X=9.702000617981 Y=53.52562665939 alt=-9.475830078125 date=417962255 dist=46.69 m V*=(2.71,2.78,0) m/s v=14 km/h
  + X=9.703030586243 Y=53.52498292923 alt=-8.995239257812 date=417962278 dist=98.787 m V*=(2.96,3.11,0.02) m/s v=15.4 km/h
  + X=9.70401763916 Y=53.52448940277 alt=-9.475830078125 date=417962299 dist=85.256 m V*=(3.1,2.61,-0.02) m/s v=14.6 km/h
  + X=9.704618453979 Y=53.52431774139 alt=-9.475830078125 date=417962314 dist=44.064 m V*=(2.64,1.27,0) m/s v=10.5 km/h
  + X=9.705283641815 Y=53.52406024933 alt=-9.95654296875 date=417962327 dist=52.471 m V*=(3.38,2.2,-0.03) m/s v=14.5 km/h
  + X=9.705498218536 Y=53.52397441864 alt=-9.95654296875 date=417962331 dist=17.096 m V*=(3.54,2.38,0) m/s v=15.3 km/h
  + X=9.706270694733 Y=53.52371692657 alt=-9.475830078125 date=417962347 dist=58.543 m V*=(3.19,1.78,0.03) m/s v=13.1 km/h
  + X=9.706485271454 Y=53.52397441864 alt=-10.43725585938 date=417962358 dist=31.952 m V*=(1.28,2.6,-0.08) m/s v=10.4 km/h
  + X=9.706935882568 Y=53.52448940277 alt=-10.43725585938 date=417962375 dist=64.547 m V*=(1.75,3.36,0) m/s v=13.6 km/h
  + X=9.707386493683 Y=53.52498292923 alt=-9.95654296875 date=417962391 dist=62.44 m V*=(1.86,3.42,0.03) m/s v=14 km/h
  + X=9.707858562469 Y=53.52549791336 alt=-9.95654296875 date=417962412 dist=65.213 m V*=(1.48,2.72,0) m/s v=11.1 km/h
  + X=9.707901477814 Y=53.52551937103 alt=-9.95654296875 date=417962415 dist=3.706 m V*=(0.94,0.79,0) m/s v=4.4 km/h
  + X=9.708094596863 Y=53.52551937103 alt=-8.995239257812 date=417962430 dist=12.765 m V*=(0.85,0,0.06) m/s v=3 km/h
  + X=9.708330631256 Y=53.5255408287 alt=-8.5146484375 date=417962436 dist=15.783 m V*=(2.6,0.39,0.08) m/s v=9.4 km/h
  + X=9.709146022797 Y=53.52545499802 alt=-7.553100585938 date=417962451 dist=54.737 m V*=(3.59,0.63,0.06) m/s v=13.1 km/h
  + X=9.709424972534 Y=53.52541208267 alt=-7.553100585938 date=417962455 dist=19.046 m V*=(4.6,1.19,0) m/s v=17.1 km/h
  + X=9.709746837616 Y=53.52536916733 alt=-8.033935546875 date=417962459 dist=21.804 m V*=(5.31,1.19,-0.12) m/s v=19.6 km/h
  + X=9.711141586304 Y=53.52494001389 alt=-8.5146484375 date=417962478 dist=103.813 m V*=(4.85,2.51,-0.02) m/s v=19.6 km/h
  + X=9.71232175827 Y=53.52457523346 alt=-8.995239257812 date=417962497 dist=87.927 m V*=(4.1,2.13,-0.02) m/s v=16.6 km/h
  + X=9.713609218597 Y=53.52416753769 alt=-9.475830078125 date=417962520 dist=96.426 m V*=(3.7,1.97,-0.02) m/s v=15 km/h
  + X=9.714424610138 Y=53.5239315033 alt=-9.95654296875 date=417962536 dist=59.95 m V*=(3.36,1.64,-0.03) m/s v=13.4 km/h
  + X=9.715583324432 Y=53.52356672287 alt=-9.95654296875 date=417962555 dist=86.672 m V*=(4.03,2.13,0) m/s v=16.4 km/h
  + X=9.716463088989 Y=53.52328777313 alt=-9.95654296875 date=417962571 dist=65.911 m V*=(3.63,1.93,0) m/s v=14.8 km/h
  + X=9.717557430267 Y=53.52294445038 alt=-10.91784667969 date=417962589 dist=81.796 m V*=(4.01,2.12,-0.05) m/s v=16.3 km/h
  + X=9.718759059906 Y=53.52257966995 alt=-10.91784667969 date=417962610 dist=89.191 m V*=(3.78,1.93,0) m/s v=15.2 km/h
  + X=9.719595909119 Y=53.52232217789 alt=-10.43725585938 date=417962626 dist=62.291 m V*=(3.45,1.78,0.03) m/s v=14 km/h
  + X=9.720561504364 Y=53.52202177048 alt=-10.43725585938 date=417962641 dist=72.044 m V*=(4.25,2.22,0) m/s v=17.2 km/h
  + X=9.721527099609 Y=53.52172136307 alt=-9.95654296875 date=417962658 dist=72.044 m V*=(3.75,1.96,0.02) m/s v=15.2 km/h
  + X=9.722428321838 Y=53.52144241333 alt=-9.95654296875 date=417962674 dist=67.168 m V*=(3.72,1.93,0) m/s v=15.1 km/h
  + X=9.7234582901 Y=53.52112054825 alt=-10.43725585938 date=417962693 dist=76.922 m V*=(3.58,1.88,-0.02) m/s v=14.5 km/h
  + X=9.724380970001 Y=53.52084159851 alt=-10.43725585938 date=417962710 dist=68.43 m V*=(3.58,1.82,0) m/s v=14.4 km/h
  + X=9.725003242493 Y=53.52066993713 alt=-10.43725585938 date=417962723 dist=45.35 m V*=(3.16,1.46,0) m/s v=12.5 km/h
  + X=9.725689888 Y=53.52045536041 alt=-9.95654296875 date=417962740 dist=51.282 m V*=(2.67,1.4,0.02) m/s v=10.8 km/h
  + X=9.725775718689 Y=53.52045536041 alt=-10.43725585938 date=417962751 dist=5.674 m V*=(0.51,0,-0.04) m/s v=1.8 km/h
  + X=9.726011753082 Y=53.5203909874 alt=-10.43725585938 date=417962757 dist=17.167 m V*=(2.6,1.19,0) m/s v=10.3 km/h
  + X=9.726076126099 Y=53.52036952972 alt=-10.43725585938 date=417962759 dist=4.878 m V*=(2.12,1.19,0) m/s v=8.7 km/h
  + X=9.72669839859 Y=53.52013349533 alt=-10.91784667969 date=417962772 dist=48.797 m V*=(3.16,2.01,-0.03) m/s v=13.5 km/h
  + X=9.727578163147 Y=53.51985454559 alt=-9.95654296875 date=417962789 dist=65.915 m V*=(3.42,1.82,0.05) m/s v=13.9 km/h
  + X=9.728500843048 Y=53.51955413818 alt=-7.553100585938 date=417962808 dist=69.546 m V*=(3.21,1.75,0.12) m/s v=13.1 km/h
  + X=9.729316234589 Y=53.51933956146 alt=-6.111206054688 date=417962826 dist=58.95 m V*=(2.99,1.32,0.08) m/s v=11.7 km/h
  + X=9.729981422424 Y=53.51912498474 alt=-4.669311523438 date=417962842 dist=50.032 m V*=(2.74,1.49,0.09) m/s v=11.2 km/h
  + X=9.730710983276 Y=53.51897478104 alt=-4.669311523438 date=417962858 dist=51.042 m V*=(3.01,1.04,0) m/s v=11.4 km/h
  + X=9.73094701767 Y=53.51938247681 alt=-5.14990234375 date=417962868 dist=47.944 m V*=(1.56,4.53,-0.04) m/s v=17.2 km/h
  + X=9.731483459473 Y=53.51998329163 alt=-6.591918945312 date=417962880 dist=75.637 m V*=(2.95,5.56,-0.12) m/s v=22.6 km/h
  + X=9.731998443604 Y=53.5205411911 alt=-8.033935546875 date=417962895 dist=70.763 m V*=(2.26,4.13,-0.09) m/s v=16.9 km/h
  + X=9.73247051239 Y=53.5210776329 alt=-8.033935546875 date=417962912 dist=67.32 m V*=(1.83,3.5,0) m/s v=14.2 km/h
  + X=9.733049869537 Y=53.52167844772 alt=-7.553100585938 date=417962930 dist=77.007 m V*=(2.12,3.71,0.02) m/s v=15.4 km/h
  + X=9.733436107635 Y=53.52236509323 alt=-7.553100585938 date=417962950 dist=80.507 m V*=(1.27,3.81,0) m/s v=14.4 km/h
  + X=9.733715057373 Y=53.52307319641 alt=-6.591918945312 date=417962969 dist=80.867 m V*=(0.97,4.14,0.05) m/s v=15.3 km/h
  + X=9.734122753143 Y=53.52360963821 alt=-6.591918945312 date=417962985 dist=65.455 m V*=(1.68,3.72,0) m/s v=14.7 km/h
  + X=9.734208583832 Y=53.52367401123 alt=-6.591918945312 date=417962987 dist=9.133 m V*=(2.83,3.57,0) m/s v=16.4 km/h
  + X=9.735109806061 Y=53.52425336838 alt=-7.072509765625 date=417963006 dist=87.745 m V*=(3.13,3.39,-0.02) m/s v=16.6 km/h
  + X=9.735517501831 Y=53.52451086044 alt=-7.072509765625 date=417963015 dist=39.32 m V*=(2.99,3.18,0) m/s v=15.7 km/h
  + X=9.736311435699 Y=53.52502584457 alt=-7.072509765625 date=417963033 dist=77.674 m V*=(2.91,3.18,0) m/s v=15.5 km/h
  + X=9.737298488617 Y=53.52551937103 alt=-7.553100585938 date=417963053 dist=85.256 m V*=(3.26,2.74,-0.02) m/s v=15.3 km/h
  + X=9.737899303436 Y=53.52569103241 alt=-7.553100585938 date=417963063 dist=44.063 m V*=(3.97,1.9,0) m/s v=15.8 km/h
  + X=9.738993644714 Y=53.52607727051 alt=-7.553100585938 date=417963081 dist=84.125 m V*=(4.01,2.38,0) m/s v=16.8 km/h
  + X=9.739079475403 Y=53.52614164352 alt=-7.072509765625 date=417963083 dist=9.133 m V*=(2.83,3.57,0.24) m/s v=16.4 km/h
  + X=9.740087985992 Y=53.52654933929 alt=-7.553100585938 date=417963101 dist=80.616 m V*=(3.7,2.51,-0.02) m/s v=16.1 km/h
  + X=9.740195274353 Y=53.52693557739 alt=-7.553100585938 date=417963112 dist=43.529 m V*=(0.64,3.9,0) m/s v=14.2 km/h
  + X=9.740195274353 Y=53.52710723877 alt=-8.033935546875 date=417963117 dist=19.087 m V*=(0,3.81,-0.09) m/s v=13.7 km/h
  + X=9.740796089172 Y=53.52757930756 alt=-8.033935546875 date=417963133 dist=65.821 m V*=(2.48,3.28,0) m/s v=14.8 km/h
  + X=9.741096496582 Y=53.52794408798 alt=-8.5146484375 date=417963147 dist=45.161 m V*=(1.41,2.89,-0.03) m/s v=11.6 km/h
  + X=9.74137544632 Y=53.52841615677 alt=-8.5146484375 date=417963162 dist=55.635 m V*=(1.22,3.49,0) m/s v=13.3 km/h
  + X=9.742019176483 Y=53.52895259857 alt=-8.995239257812 date=417963181 dist=73.269 m V*=(2.23,3.13,-0.02) m/s v=13.8 km/h
  + X=9.742448329926 Y=53.529317379 alt=-7.553100585938 date=417963197 dist=49.495 m V*=(1.77,2.53,0.09) m/s v=11.1 km/h
  + X=9.742920398712 Y=53.52972507477 alt=-7.553100585938 date=417963213 dist=55.033 m V*=(1.95,2.83,0) m/s v=12.3 km/h
  + X=9.743413925171 Y=53.53026151657 alt=-8.033935546875 date=417963230 dist=67.986 m V*=(1.91,3.5,-0.02) m/s v=14.3 km/h
  + X=9.744164943695 Y=53.53064775467 alt=-8.033935546875 date=417963246 dist=65.638 m V*=(3.1,2.68,0) m/s v=14.7 km/h
  + X=9.74502325058 Y=53.53069067001 alt=-7.553100585938 date=417963261 dist=56.928 m V*=(3.78,0.31,0.03) m/s v=13.6 km/h
  + X=9.745817184448 Y=53.53073358536 alt=-7.553100585938 date=417963275 dist=52.69 m V*=(3.74,0.34,0) m/s v=13.5 km/h
  + X=9.746932983398 Y=53.5307765007 alt=-8.033935546875 date=417963292 dist=73.901 m V*=(4.33,0.28,-0.02) m/s v=15.6 km/h
  + X=9.747276306152 Y=53.53075504303 alt=-7.553100585938 date=417963297 dist=22.816 m V*=(4.53,0.47,0.09) m/s v=16.4 km/h
  + X=9.747469425201 Y=53.53071212769 alt=-7.553100585938 date=417963300 dist=13.626 m V*=(4.25,1.59,0) m/s v=16.3 km/h
  + X=9.749035835266 Y=53.53058338165 alt=-7.553100585938 date=417963319 dist=104.514 m V*=(5.44,0.75,0) m/s v=19.8 km/h
  + X=9.749743938446 Y=53.53056192398 alt=-7.072509765625 date=417963328 dist=46.861 m V*=(5.2,0.26,0.05) m/s v=18.7 km/h
  + X=9.750924110413 Y=53.53064775467 alt=-7.553100585938 date=417963348 dist=78.583 m V*=(3.9,0.47,-0.02) m/s v=14.1 km/h
  + X=9.75191116333 Y=53.5307765007 alt=-7.072509765625 date=417963366 dist=66.789 m V*=(3.62,0.79,0.02) m/s v=13.3 km/h
  + X=9.752705097198 Y=53.53092670441 alt=-7.072509765625 date=417963381 dist=55.067 m V*=(3.49,1.11,0) m/s v=13.2 km/h
  + X=9.753713607788 Y=53.53103399277 alt=-6.591918945312 date=417963400 dist=67.714 m V*=(3.5,0.62,0.02) m/s v=12.8 km/h
  + X=9.753842353821 Y=53.53103399277 alt=-6.591918945312 date=417963402 dist=8.509 m V*=(4.25,0,0) m/s v=15.3 km/h
  + X=9.753885269165 Y=53.5311627388 alt=-7.072509765625 date=417963408 dist=14.594 m V*=(0.47,2.38,-0.08) m/s v=8.7 km/h
  + X=9.753906726837 Y=53.5311627388 alt=-6.591918945312 date=417963440 dist=1.418 m V*=(0.04,0,0.01) m/s v=0.1 km/h
 ** X=9.753971099854 Y=53.53139877319 alt=-6.591918945312 date=417963587 dist=26.588 m
 ** X=9.753971099854 Y=53.53090524673 alt=-6.591918945312 date=417963812 dist=54.877 m
  + X=9.754014015198 Y=53.53122711182 alt=0.6180419921875 date=417963843 dist=35.901 m V*=(0.09,1.15,0.23) m/s v=4.2 km/h
 ** X=9.753949642181 Y=53.53109836578 alt=0.6180419921875 date=417964131 dist=14.934 m
  + X=9.753992557526 Y=53.53122711182 alt=9.269897460938 date=417964157 dist=14.594 m V*=(0.1,0.55,0.33) m/s v=2.3 km/h
 ** X=9.753971099854 Y=53.53118419647 alt=4.463256835938 date=417964592 dist=4.978 m
 ** X=9.754099845886 Y=53.53105545044 alt=1.0986328125 date=417964642 dist=16.653 m
  + X=9.75414276123 Y=53.53103399277 alt=1.0986328125 date=417964652 dist=3.706 m V*=(0.28,0.23,0) m/s v=1.3 km/h
  + X=9.754078388214 Y=53.53105545044 alt=1.0986328125 date=417964672 dist=4.877 m V*=(0.21,0.11,0) m/s v=0.8 km/h
  + X=9.754056930542 Y=53.53105545044 alt=-3.707885742188 date=417964776 dist=1.418 m V*=(0.01,0,-0.04) m/s v=0.1 km/h
  + X=9.754014015198 Y=53.53105545044 alt=-0.8240966796875 date=417964828 dist=2.836 m V*=(0.05,0,0.05) m/s v=0.2 km/h
  + X=9.754250049591 Y=53.5310125351 alt=-0.3433837890625 date=417964834 dist=16.313 m V*=(2.6,0.79,0.08) m/s v=9.7 km/h
  + X=9.755344390869 Y=53.53094816208 alt=-0.8240966796875 date=417964851 dist=72.681 m V*=(4.25,0.42,-0.02) m/s v=15.3 km/h
  + X=9.756395816803 Y=53.53090524673 alt=-1.785278320312 date=417964868 dist=69.655 m V*=(4.08,0.28,-0.05) m/s v=14.7 km/h
  + X=9.757103919983 Y=53.53066921234 alt=-2.746704101562 date=417964881 dist=53.657 m V*=(3.6,2.01,-0.07) m/s v=14.8 km/h
  + X=9.75757598877 Y=53.53056192398 alt=-3.227294921875 date=417964888 dist=33.403 m V*=(4.45,1.7,-0.06) m/s v=17.1 km/h
  + X=9.757790565491 Y=53.53056192398 alt=-3.227294921875 date=417964891 dist=14.182 m V*=(4.72,0,0) m/s v=17 km/h
  + X=9.7580909729 Y=53.53060483932 alt=-3.227294921875 date=417964895 dist=20.42 m V*=(4.96,1.19,0) m/s v=18.3 km/h
  + X=9.758219718933 Y=53.53064775467 alt=-3.227294921875 date=417964897 dist=9.755 m V*=(4.25,2.38,0) m/s v=17.5 km/h
  + X=9.758541584015 Y=53.53064775467 alt=-3.227294921875 date=417964901 dist=21.273 m V*=(5.31,0,0) m/s v=19.1 km/h
  + X=9.758756160736 Y=53.53060483932 alt=-3.227294921875 date=417964904 dist=14.963 m V*=(4.72,1.59,0) m/s v=17.9 km/h
  + X=9.758992195129 Y=53.530626297 alt=-3.227294921875 date=417964907 dist=15.781 m V*=(5.2,0.79,0) m/s v=18.9 km/h
  + X=9.759249687195 Y=53.53066921234 alt=-3.227294921875 date=417964911 dist=17.674 m V*=(4.25,1.19,0) m/s v=15.9 km/h
  + X=9.760472774506 Y=53.53086233139 alt=-3.707885742188 date=417964928 dist=83.641 m V*=(4.75,1.26,-0.02) m/s v=17.7 km/h
  + X=9.761266708374 Y=53.53090524673 alt=-3.227294921875 date=417964941 dist=52.69 m V*=(4.03,0.36,0.03) m/s v=14.5 km/h
  + X=9.762425422668 Y=53.53090524673 alt=-3.707885742188 date=417964959 dist=76.582 m V*=(4.25,0,-0.02) m/s v=15.3 km/h
  + X=9.762833118439 Y=53.53084087372 alt=-3.707885742188 date=417964965 dist=27.88 m V*=(4.49,1.19,0) m/s v=16.7 km/h
  + X=9.763669967651 Y=53.53041172028 alt=-3.227294921875 date=417964981 dist=73.05 m V*=(3.45,2.98,0.03) m/s v=16.4 km/h
  + X=9.763841629028 Y=53.53017568588 alt=-3.227294921875 date=417964987 dist=28.593 m V*=(1.89,4.37,0) m/s v=17.1 km/h
  + X=9.764335155487 Y=53.52987527847 alt=-2.746704101562 date=417964997 dist=46.688 m V*=(3.26,3.34,0.04) m/s v=16.8 km/h
  + X=9.765021800995 Y=53.52927446365 alt=-3.227294921875 date=417965013 dist=80.764 m V*=(2.83,4.17,-0.03) m/s v=18.1 km/h
  + X=9.765000343323 Y=53.52897405624 alt=-2.746704101562 date=417965020 dist=33.433 m V*=(0.2,4.77,0.06) m/s v=17.1 km/h
  + X=9.765086174011 Y=53.52882385254 alt=-2.746704101562 date=417965024 dist=17.639 m V*=(1.41,4.17,0) m/s v=15.8 km/h
  + X=9.765343666077 Y=53.52867364883 alt=-2.265991210938 date=417965029 dist=23.845 m V*=(3.4,3.34,0.09) m/s v=17.1 km/h
  + X=9.766931533813 Y=53.5281586647 alt=-2.746704101562 date=417965053 dist=119.558 m V*=(4.37,2.38,-0.02) m/s v=17.9 km/h
  + X=9.768755435944 Y=53.52760076523 alt=-2.265991210938 date=417965081 dist=135.58 m V*=(4.3,2.21,0.01) m/s v=17.4 km/h
  + X=9.770085811615 Y=53.52721452713 alt=-1.3046875 date=417965102 dist=97.863 m V*=(4.18,2.04,0.04) m/s v=16.7 km/h
  + X=9.771330356598 Y=53.52695703506 alt=-1.3046875 date=417965120 dist=87.103 m V*=(4.57,1.59,0) m/s v=17.4 km/h
  + X=9.771695137024 Y=53.52697849274 alt=-1.785278320312 date=417965125 dist=24.229 m V*=(4.82,0.47,-0.09) m/s v=17.4 km/h
  + X=9.771888256073 Y=53.52704286575 alt=-1.785278320312 date=417965128 dist=14.634 m V*=(4.25,2.38,0) m/s v=17.5 km/h
  + X=9.772145748138 Y=53.52704286575 alt=-1.785278320312 date=417965132 dist=17.019 m V*=(4.25,0,0) m/s v=15.3 km/h
  + X=9.772338867188 Y=53.52699995041 alt=-2.265991210938 date=417965135 dist=13.627 m V*=(4.25,1.59,-0.16) m/s v=16.3 km/h
  + X=9.77287530899 Y=53.52676391602 alt=-2.265991210938 date=417965144 dist=44.115 m V*=(3.93,2.91,0) m/s v=17.6 km/h
  + X=9.772961139679 Y=53.52661371231 alt=-1.785278320312 date=417965148 dist=17.639 m V*=(1.41,4.17,0.12) m/s v=15.8 km/h
  + X=9.772918224335 Y=53.52633476257 alt=-1.785278320312 date=417965154 dist=31.147 m V*=(0.47,5.16,0) m/s v=18.6 km/h
  + X=9.773046970367 Y=53.52612018585 alt=-0.8240966796875 date=417965159 dist=25.332 m V*=(1.7,4.77,0.19) m/s v=18.2 km/h
  + X=9.773969650269 Y=53.5252404213 alt=-0.3433837890625 date=417965182 dist=115.28 m V*=(2.65,4.25,0.02) m/s v=18 km/h
  + X=9.774549007416 Y=53.52474689484 alt=-0.3433837890625 date=417965196 dist=66.919 m V*=(2.73,3.91,0) m/s v=17.2 km/h
  + X=9.774849414825 Y=53.52472543716 alt=-0.3433837890625 date=417965200 dist=20 m V*=(4.96,0.59,0) m/s v=18 km/h
  + X=9.776694774628 Y=53.52487564087 alt=-1.3046875 date=417965226 dist=123.121 m V*=(4.69,0.64,-0.03) m/s v=17 km/h
  + X=9.777939319611 Y=53.52498292923 alt=-1.785278320312 date=417965246 dist=83.127 m V*=(4.11,0.59,-0.02) m/s v=14.9 km/h
  + X=9.778368473053 Y=53.52504730225 alt=-1.3046875 date=417965256 dist=29.257 m V*=(2.83,0.71,0.04) m/s v=10.5 km/h
  + X=9.778304100037 Y=53.525390625 alt=-0.8240966796875 date=417965268 dist=38.412 m V*=(0.35,3.18,0.04) m/s v=11.5 km/h
  + X=9.778089523315 Y=53.52599143982 alt=-0.8240966796875 date=417965288 dist=68.296 m V*=(0.7,3.34,0) m/s v=12.2 km/h
  + X=9.778025150299 Y=53.52635622025 alt=-2.746704101562 date=417965301 dist=40.784 m V*=(0.32,3.12,-0.14) m/s v=11.3 km/h
  + X=9.777703285217 Y=53.52659225464 alt=-3.707885742188 date=417965312 dist=33.785 m V*=(1.93,2.38,-0.08) m/s v=11 km/h
  + X=9.777574539185 Y=53.52676391602 alt=-4.188598632812 date=417965317 dist=20.898 m V*=(1.7,3.81,-0.09) m/s v=15 km/h
  + X=9.777746200562 Y=53.52730035782 alt=-3.227294921875 date=417965331 dist=60.719 m V*=(0.81,4.26,0.06) m/s v=15.6 km/h
  + X=9.778025150299 Y=53.52740764618 alt=-4.188598632812 date=417965337 dist=21.961 m V*=(3.07,1.98,-0.16) m/s v=13.1 km/h
  + X=9.778110980988 Y=53.52760076523 alt=-2.746704101562 date=417965343 dist=22.21 m V*=(0.94,3.57,0.24) m/s v=13.3 km/h
  + X=9.778304100037 Y=53.52824449539 alt=-1.785278320312 date=417965361 dist=72.708 m V*=(0.7,3.97,0.05) m/s v=14.5 km/h
  + X=9.77813243866 Y=53.5289311409 alt=-1.3046875 date=417965380 dist=77.189 m V*=(0.59,4.01,0.02) m/s v=14.6 km/h
  + X=9.777960777283 Y=53.52961778641 alt=-0.8240966796875 date=417965398 dist=77.189 m V*=(0.63,4.24,0.02) m/s v=15.4 km/h
  + X=9.777789115906 Y=53.5302400589 alt=-0.8240966796875 date=417965416 dist=70.117 m V*=(0.63,3.84,0) m/s v=14 km/h
  + X=9.777703285217 Y=53.53060483932 alt=-0.8240966796875 date=417965426 dist=40.956 m V*=(0.56,4.05,0) m/s v=14.7 km/h
  + X=9.777445793152 Y=53.53120565414 alt=-0.3433837890625 date=417965443 dist=68.941 m V*=(1,3.92,0.02) m/s v=14.5 km/h
  + X=9.777939319611 Y=53.53159189224 alt=0.137451171875 date=417965457 dist=53.93 m V*=(2.32,3.06,0.03) m/s v=13.8 km/h
  + X=9.778819084167 Y=53.531935215 alt=0.6180419921875 date=417965477 dist=69.557 m V*=(2.9,1.9,0.02) m/s v=12.5 km/h
  + X=9.779484272003 Y=53.53225708008 alt=-1.785278320312 date=417965492 dist=56.689 m V*=(2.93,2.38,-0.16) m/s v=13.6 km/h
  + X=9.779913425446 Y=53.53249311447 alt=-2.265991210938 date=417965502 dist=38.643 m V*=(2.83,2.62,-0.04) m/s v=13.9 km/h
  + X=9.780728816986 Y=53.53255748749 alt=-2.265991210938 date=417965518 dist=54.362 m V*=(3.36,0.44,0) m/s v=12.2 km/h
  + X=9.780857563019 Y=53.53253602982 alt=-2.746704101562 date=417965521 dist=8.837 m V*=(2.83,0.79,-0.16) m/s v=10.6 km/h
  + X=9.781007766724 Y=53.53242874146 alt=-3.227294921875 date=417965524 dist=15.519 m V*=(3.3,3.97,-0.16) m/s v=18.6 km/h
  + X=9.781286716461 Y=53.53225708008 alt=-2.746704101562 date=417965532 dist=26.537 m V*=(2.3,2.38,0.06) m/s v=11.9 km/h
  + X=9.781994819641 Y=53.53199958801 alt=-2.265991210938 date=417965546 dist=54.863 m V*=(3.34,2.04,0.03) m/s v=14.1 km/h
  + X=9.782466888428 Y=53.53191375732 alt=-0.8240966796875 date=417965556 dist=32.626 m V*=(3.11,0.95,0.14) m/s v=11.7 km/h
  + X=9.783389568329 Y=53.53187084198 alt=1.0986328125 date=417965570 dist=61.167 m V*=(4.35,0.34,0.13) m/s v=15.7 km/h
  + X=9.784333705902 Y=53.53176355362 alt=1.0986328125 date=417965587 dist=63.529 m V*=(3.67,0.7,0) m/s v=13.4 km/h
  + X=9.784848690033 Y=53.53165626526 alt=1.0986328125 date=417965598 dist=36.066 m V*=(3.09,1.08,0) m/s v=11.8 km/h
  + X=9.785535335541 Y=53.5315489769 alt=2.540649414062 date=417965612 dist=46.923 m V*=(3.24,0.85,0.1) m/s v=12 km/h
  + X=9.786286354065 Y=53.53139877319 alt=2.06005859375 date=417965628 dist=52.371 m V*=(3.1,1.04,-0.03) m/s v=11.7 km/h
  + X=9.787402153015 Y=53.53120565414 alt=3.021240234375 date=417965648 dist=76.808 m V*=(3.68,1.07,0.04) m/s v=13.8 km/h
  + X=9.78796005249 Y=53.53109836578 alt=3.021240234375 date=417965660 dist=38.754 m V*=(3.07,0.99,0) m/s v=11.6 km/h
  + X=9.789204597473 Y=53.53084087372 alt=2.540649414062 date=417965685 dist=87.096 m V*=(3.29,1.14,-0.01) m/s v=12.5 km/h
  + X=9.790213108063 Y=53.53045463562 alt=2.06005859375 date=417965705 dist=79.293 m V*=(3.33,2.14,-0.02) m/s v=14.2 km/h
  + X=9.791178703308 Y=53.53019714355 alt=2.06005859375 date=417965725 dist=69.948 m V*=(3.19,1.43,0) m/s v=12.5 km/h
  + X=9.791436195374 Y=53.53013277054 alt=1.579345703125 date=417965729 dist=18.462 m V*=(4.25,1.78,-0.12) m/s v=16.6 km/h
  + X=9.792659282684 Y=53.52987527847 alt=1.0986328125 date=417965745 dist=85.759 m V*=(5.05,1.78,-0.03) m/s v=19.2 km/h
  + X=9.793839454651 Y=53.52951049805 alt=0.6180419921875 date=417965765 dist=87.919 m V*=(3.9,2.02,-0.02) m/s v=15.8 km/h
  + X=9.794869422913 Y=53.52918863297 alt=0.137451171875 date=417965783 dist=76.91 m V*=(3.78,1.98,-0.02) m/s v=15.3 km/h
  + X=9.796028137207 Y=53.52880239487 alt=0.137451171875 date=417965803 dist=87.806 m V*=(3.82,2.14,0) m/s v=15.8 km/h
  + X=9.79697227478 Y=53.52841615677 alt=0.6180419921875 date=417965820 dist=75.754 m V*=(3.67,2.52,0.02) m/s v=16 km/h
  + X=9.798045158386 Y=53.52802991867 alt=-0.3433837890625 date=417965842 dist=82.905 m V*=(3.22,1.95,-0.04) m/s v=13.5 km/h
  + X=9.799118041992 Y=53.52749347687 alt=-1.3046875 date=417965855 dist=92.666 m V*=(5.45,4.58,-0.07) m/s v=25.6 km/h
  + X=9.80010509491 Y=53.52695703506 alt=0.6180419921875 date=417965873 dist=88.4 m V*=(3.62,3.31,0.1) m/s v=17.6 km/h
  + X=9.800169467926 Y=53.52693557739 alt=1.0986328125 date=417965891 dist=4.878 m V*=(0.23,0.13,0.02) m/s v=0.9 km/h
  + X=9.800233840942 Y=53.52693557739 alt=1.0986328125 date=417965896 dist=4.255 m V*=(0.85,0,0) m/s v=3 km/h
  + X=9.800748825073 Y=53.52657079697 alt=1.0986328125 date=417965913 dist=52.952 m V*=(2,2.38,0) m/s v=11.2 km/h
  + X=9.801199436188 Y=53.52603435516 alt=0.6180419921875 date=417965932 dist=66.672 m V*=(1.56,3.13,-0.02) m/s v=12.6 km/h
  + X=9.801435470581 Y=53.52556228638 alt=0.6180419921875 date=417965946 dist=54.761 m V*=(1.11,3.74,0) m/s v=14 km/h
  + X=9.801671504974 Y=53.52496147156 alt=0.137451171875 date=417965963 dist=68.605 m V*=(0.91,3.92,-0.02) m/s v=14.5 km/h
  + X=9.80132818222 Y=53.52457523346 alt=0.137451171875 date=417965976 dist=48.575 m V*=(1.74,3.3,0) m/s v=13.4 km/h
  + X=9.801156520844 Y=53.52401733398 alt=-1.785278320312 date=417965991 dist=63.064 m V*=(0.75,4.13,-0.12) m/s v=15.1 km/h
  + X=9.800899028778 Y=53.52343797684 alt=-1.3046875 date=417966008 dist=66.632 m V*=(1,3.78,0.02) m/s v=14.1 km/h
  + X=9.800684452057 Y=53.52303028107 alt=-3.227294921875 date=417966020 dist=47.501 m V*=(1.18,3.77,-0.16) m/s v=14.2 km/h
  + X=9.80081319809 Y=53.52294445038 alt=-2.265991210938 date=417966025 dist=12.787 m V*=(1.7,1.9,0.19) m/s v=9.2 km/h
  + X=9.800705909729 Y=53.52270841599 alt=-0.8240966796875 date=417966035 dist=27.187 m V*=(0.7,2.62,0.14) m/s v=9.8 km/h
  + X=9.800941944122 Y=53.5222363472 alt=-1.785278320312 date=417966049 dist=54.761 m V*=(1.11,3.74,-0.06) m/s v=14 km/h
  + X=9.801156520844 Y=53.52210760117 alt=-2.265991210938 date=417966053 dist=20.153 m V*=(3.54,3.57,-0.12) m/s v=18.1 km/h
  + X=9.801671504974 Y=53.52163553238 alt=-3.227294921875 date=417966067 dist=62.564 m V*=(2.43,3.74,-0.06) m/s v=16 km/h
  + X=9.802422523499 Y=53.52180719376 alt=-2.265991210938 date=417966081 dist=53.19 m V*=(3.54,1.36,0.06) m/s v=13.6 km/h
  + X=9.803001880646 Y=53.5222363472 alt=-2.265991210938 date=417966099 dist=61.188 m V*=(2.12,2.65,0) m/s v=12.2 km/h
  + X=9.803495407104 Y=53.5226225853 alt=-1.785278320312 date=417966114 dist=53.934 m V*=(2.17,2.86,0.03) m/s v=12.9 km/h
  + X=9.804139137268 Y=53.52303028107 alt=-1.3046875 date=417966131 dist=62.177 m V*=(2.5,2.66,0.02) m/s v=13.1 km/h
  + X=9.804975986481 Y=53.52311611176 alt=-0.8240966796875 date=417966147 dist=56.137 m V*=(3.45,0.59,0.03) m/s v=12.6 km/h
  + X=9.806177616119 Y=53.52275133133 alt=-1.785278320312 date=417966170 dist=89.191 m V*=(3.45,1.76,-0.04) m/s v=13.9 km/h
  + X=9.806370735168 Y=53.52227926254 alt=-1.785278320312 date=417966183 dist=54.021 m V*=(0.98,4.03,0) m/s v=14.9 km/h
  + X=9.806885719299 Y=53.52189302444 alt=-1.3046875 date=417966196 dist=54.804 m V*=(2.61,3.3,0.03) m/s v=15.1 km/h
  + X=9.807958602905 Y=53.52152824402 alt=-1.3046875 date=417966218 dist=81.704 m V*=(3.22,1.84,0) m/s v=13.3 km/h
  + X=9.80881690979 Y=53.52154970169 alt=-1.3046875 date=417966235 dist=56.79 m V*=(3.33,0.14,0) m/s v=12 km/h
  + X=9.809546470642 Y=53.52165699005 alt=-0.8240966796875 date=417966251 dist=49.683 m V*=(3.01,0.74,0.03) m/s v=11.1 km/h
  + X=9.809632301331 Y=53.52167844772 alt=-0.3433837890625 date=417966263 dist=6.155 m V*=(0.47,0.19,0.04) m/s v=1.8 km/h
  + X=9.809632301331 Y=53.5216999054 alt=-1.3046875 date=417966267 dist=2.385 m V*=(0,0.59,-0.24) m/s v=2.3 km/h
  + X=9.809546470642 Y=53.52172136307 alt=-2.265991210938 date=417966272 dist=6.155 m V*=(1.13,0.47,-0.19) m/s v=4.4 km/h
  + X=9.809482097626 Y=53.52221488953 alt=-2.746704101562 date=417966285 dist=55.042 m V*=(0.32,4.22,-0.03) m/s v=15.2 km/h
  + X=9.809675216675 Y=53.52305173874 alt=-2.746704101562 date=417966306 dist=93.925 m V*=(0.6,4.43,0) m/s v=16.1 km/h
  + X=9.809889793396 Y=53.52378129959 alt=-2.746704101562 date=417966326 dist=82.354 m V*=(0.7,4.05,0) m/s v=14.8 km/h
  + X=9.810147285461 Y=53.52455377579 alt=-3.707885742188 date=417966347 dist=87.565 m V*=(0.81,4.09,-0.04) m/s v=15 km/h
  + X=9.810361862183 Y=53.52519750595 alt=-3.227294921875 date=417966366 dist=72.971 m V*=(0.74,3.76,0.02) m/s v=13.8 km/h
  + X=9.811155796051 Y=53.52571249008 alt=-3.707885742188 date=417966385 dist=77.674 m V*=(2.76,3.01,-0.02) m/s v=14.7 km/h
  + X=9.811799526215 Y=53.52601289749 alt=-3.707885742188 date=417966398 dist=54.096 m V*=(3.27,2.56,0) m/s v=14.9 km/h
  + X=9.813022613525 Y=53.52609872818 alt=-4.669311523438 date=417966418 dist=81.408 m V*=(4.04,0.47,-0.04) m/s v=14.6 km/h
  + X=9.814074039459 Y=53.52609872818 alt=-4.188598632812 date=417966436 dist=69.499 m V*=(3.86,0,0.02) m/s v=13.9 km/h
  + X=9.81529712677 Y=53.52633476257 alt=-4.669311523438 date=417966456 dist=85 m V*=(4.04,1.31,-0.02) m/s v=15.3 km/h
  + X=9.816219806671 Y=53.52644205093 alt=-4.188598632812 date=417966471 dist=62.145 m V*=(4.06,0.79,0.03) m/s v=14.9 km/h
  + X=9.817678928375 Y=53.52644205093 alt=-5.14990234375 date=417966494 dist=96.447 m V*=(4.19,0,-0.04) m/s v=15 km/h
  + X=9.819202423096 Y=53.52629184723 alt=-5.14990234375 date=417966520 dist=102.078 m V*=(3.87,0.64,0) m/s v=14.1 km/h
  + X=9.819416999817 Y=53.52629184723 alt=-5.14990234375 date=417966524 dist=14.183 m V*=(3.54,0,0) m/s v=12.7 km/h
  + X=9.819846153259 Y=53.52659225464 alt=-5.630493164062 date=417966536 dist=43.823 m V*=(2.36,2.78,-0.04) m/s v=13.1 km/h
  + X=9.820382595062 Y=53.52704286575 alt=-5.14990234375 date=417966553 dist=61.383 m V*=(2.08,2.94,0.02) m/s v=12.9 km/h
  + X=9.820704460144 Y=53.5272359848 alt=-5.14990234375 date=417966566 dist=30.228 m V*=(1.63,1.65,0) m/s v=8.3 km/h
  + X=9.82106924057 Y=53.5274720192 alt=-4.188598632812 date=417966580 dist=35.639 m V*=(1.72,1.87,0.06) m/s v=9.1 km/h
  + X=9.821090698242 Y=53.5274720192 alt=-4.188598632812 date=417966605 dist=1.418 m V*=(0.05,0,0) m/s v=0.2 km/h
  + X=9.821112155914 Y=53.5274720192 alt=-5.630493164062 date=417966642 dist=1.418 m V*=(0.03,0,-0.03) m/s v=0.1 km/h
  + X=9.821348190308 Y=53.52755784988 alt=-5.630493164062 date=417966648 dist=18.289 m V*=(2.6,1.59,0) m/s v=10.9 km/h
  + X=9.822549819946 Y=53.52768659592 alt=-4.669311523438 date=417966660 dist=80.705 m V*=(6.61,1.19,0.08) m/s v=24.2 km/h
  + X=9.822871685028 Y=53.52777242661 alt=-4.669311523438 date=417966663 dist=23.317 m V*=(7.09,3.18,0) m/s v=27.9 km/h
  + X=9.823794364929 Y=53.5281586647 alt=-3.707885742188 date=417966673 dist=74.591 m V*=(6.09,4.29,0.09) m/s v=26.8 km/h
  + X=9.824588298798 Y=53.52856636047 alt=-3.707885742188 date=417966688 dist=69.346 m V*=(3.49,3.02,0) m/s v=16.6 km/h
  + X=9.825661182404 Y=53.52905988693 alt=-3.227294921875 date=417966708 dist=89.667 m V*=(3.54,2.74,0.02) m/s v=16.1 km/h
  + X=9.826862812042 Y=53.52961778641 alt=-3.227294921875 date=417966731 dist=100.778 m V*=(3.45,2.69,0) m/s v=15.7 km/h
  + X=9.827764034271 Y=53.53002548218 alt=-3.227294921875 date=417966748 dist=74.854 m V*=(3.5,2.66,0) m/s v=15.8 km/h
  + X=9.828772544861 Y=53.53051900864 alt=-3.227294921875 date=417966766 dist=86.34 m V*=(3.7,3.04,0) m/s v=17.2 km/h
  + X=9.829802513123 Y=53.53103399277 alt=-3.227294921875 date=417966785 dist=88.956 m V*=(3.58,3.01,0) m/s v=16.8 km/h
  + X=9.830832481384 Y=53.5315489769 alt=-3.227294921875 date=417966804 dist=88.955 m V*=(3.58,3.01,0) m/s v=16.8 km/h
  + X=9.831604957581 Y=53.531935215 alt=-3.227294921875 date=417966821 dist=66.716 m V*=(3,2.52,0) m/s v=14.1 km/h
  + X=9.832527637482 Y=53.53238582611 alt=-3.707885742188 date=417966838 dist=78.925 m V*=(3.58,2.94,-0.02) m/s v=16.7 km/h
  + X=9.833686351776 Y=53.53292226791 alt=-3.227294921875 date=417966860 dist=97.069 m V*=(3.48,2.71,0.02) m/s v=15.8 km/h
  + X=9.834866523743 Y=53.53348016739 alt=-3.227294921875 date=417966881 dist=99.659 m V*=(3.71,2.95,0) m/s v=17 km/h
  + X=9.836003780365 Y=53.53401660919 alt=-2.746704101562 date=417966901 dist=95.953 m V*=(3.75,2.98,0.02) m/s v=17.2 km/h
  + X=9.837012290955 Y=53.53448867798 alt=-3.227294921875 date=417966919 dist=84.838 m V*=(3.7,2.91,-0.02) m/s v=16.9 km/h
  + X=9.838364124298 Y=53.53511095047 alt=-3.227294921875 date=417966942 dist=113 m V*=(3.88,3,0) m/s v=17.6 km/h
  + X=9.83950138092 Y=53.53566884995 alt=-3.707885742188 date=417966962 dist=97.452 m V*=(3.75,3.1,-0.02) m/s v=17.5 km/h
  + X=9.839866161346 Y=53.53584051132 alt=-3.227294921875 date=417966973 dist=30.748 m V*=(2.19,1.73,0.04) m/s v=10 km/h
  + X=9.840638637543 Y=53.53618383408 alt=-3.227294921875 date=417966987 dist=63.744 m V*=(3.64,2.72,0) m/s v=16.3 km/h
  + X=9.841754436493 Y=53.53663444519 alt=-2.746704101562 date=417967006 dist=89.149 m V*=(3.88,2.63,0.02) m/s v=16.8 km/h
  + X=9.842698574066 Y=53.53674173355 alt=-3.227294921875 date=417967020 dist=63.522 m V*=(4.45,0.85,-0.03) m/s v=16.3 km/h
  + X=9.843878746033 Y=53.53672027588 alt=-2.746704101562 date=417967037 dist=78.026 m V*=(4.58,0.14,0.02) m/s v=16.5 km/h
  + X=9.845488071442 Y=53.53669881821 alt=-3.227294921875 date=417967061 dist=106.377 m V*=(4.43,0.09,-0.02) m/s v=15.9 km/h
  + X=9.846925735474 Y=53.53672027588 alt=-1.3046875 date=417967082 dist=95.036 m V*=(4.52,0.11,0.09) m/s v=16.2 km/h
  + X=9.847526550293 Y=53.53674173355 alt=2.540649414062 date=417967093 dist=39.775 m V*=(3.6,0.21,0.34) m/s v=13 km/h
  + X=9.847590923309 Y=53.53674173355 alt=2.540649414062 date=417967094 dist=4.254 m V*=(4.25,0,0) m/s v=15.3 km/h
  + X=9.847805500031 Y=53.53669881821 alt=2.540649414062 date=417967097 dist=14.961 m V*=(4.72,1.59,0) m/s v=17.9 km/h
  + X=9.849629402161 Y=53.53652715683 alt=2.540649414062 date=417967120 dist=122.033 m V*=(5.24,0.82,0) m/s v=19.1 km/h
  + X=9.85123872757 Y=53.53622674942 alt=1.579345703125 date=417967145 dist=111.473 m V*=(4.25,1.33,-0.03) m/s v=16 km/h
  + X=9.852397441864 Y=53.53592634201 alt=1.579345703125 date=417967164 dist=83.542 m V*=(4.03,1.75,0) m/s v=15.8 km/h
  + X=9.852676391602 Y=53.53588342667 alt=2.06005859375 date=417967168 dist=19.042 m V*=(4.6,1.19,0.12) m/s v=17.1 km/h
  + X=9.855380058289 Y=53.53543281555 alt=1.579345703125 date=417967206 dist=185.566 m V*=(4.7,1.31,-0.01) m/s v=17.5 km/h
  + X=9.857289791107 Y=53.53521823883 alt=2.06005859375 date=417967233 dist=128.442 m V*=(4.67,0.88,0.01) m/s v=17.1 km/h
  + X=9.85782623291 Y=53.53519678116 alt=2.06005859375 date=417967245 dist=35.531 m V*=(2.95,0.19,0) m/s v=10.6 km/h
  + X=9.85782623291 Y=53.53517532349 alt=1.0986328125 date=417967262 dist=2.385 m V*=(0,0.14,-0.05) m/s v=0.5 km/h
  + X=9.858212471008 Y=53.53511095047 alt=-1.3046875 date=417967274 dist=26.509 m V*=(2.12,0.59,-0.2) m/s v=7.9 km/h
  + X=9.860272407532 Y=53.5347032547 alt=-2.265991210938 date=417967308 dist=143.484 m V*=(4,1.33,-0.02) m/s v=15.1 km/h
  + X=9.862697124481 Y=53.53418827057 alt=-2.265991210938 date=417967346 dist=170.167 m V*=(4.21,1.5,0) m/s v=16.1 km/h
  + X=9.863941669464 Y=53.53399515152 alt=-2.746704101562 date=417967366 dist=85.006 m V*=(4.11,1.07,-0.02) m/s v=15.3 km/h
  + X=9.866344928741 Y=53.5339307785 alt=-3.227294921875 date=417967400 dist=158.988 m V*=(4.67,0.21,-0.01) m/s v=16.8 km/h
  + X=9.868512153625 Y=53.53388786316 alt=-3.227294921875 date=417967432 dist=143.307 m V*=(4.47,0.14,0) m/s v=16.1 km/h
  + X=9.870615005493 Y=53.53384494781 alt=-4.188598632812 date=417967464 dist=139.056 m V*=(4.34,0.14,-0.03) m/s v=15.6 km/h
  + X=9.872825145721 Y=53.53373765945 alt=-3.707885742188 date=417967496 dist=146.551 m V*=(4.56,0.37,0.01) m/s v=16.4 km/h
  + X=9.874563217163 Y=53.53363037109 alt=-2.746704101562 date=417967522 dist=115.484 m V*=(4.41,0.45,0.03) m/s v=15.9 km/h
  + X=9.875872135162 Y=53.53354454041 alt=-2.746704101562 date=417967543 dist=87.029 m V*=(4.11,0.45,0) m/s v=14.9 km/h
  + X=9.876708984375 Y=53.53350162506 alt=-2.265991210938 date=417967557 dist=55.511 m V*=(3.95,0.34,0.03) m/s v=14.2 km/h
  + X=9.877803325653 Y=53.53343725204 alt=-1.785278320312 date=417967576 dist=72.677 m V*=(3.8,0.37,0.02) m/s v=13.7 km/h
  + X=9.878618717194 Y=53.53335142136 alt=-1.785278320312 date=417967593 dist=54.727 m V*=(3.16,0.56,0) m/s v=11.5 km/h
  + X=9.878790378571 Y=53.53367328644 alt=-1.785278320312 date=417967609 dist=37.544 m V*=(0.7,2.23,0) m/s v=8.4 km/h
  + X=9.879069328308 Y=53.53459596634 alt=-2.265991210938 date=417967636 dist=104.24 m V*=(0.68,3.79,-0.01) m/s v=13.8 km/h
  + X=9.879176616669 Y=53.5350894928 alt=-1.785278320312 date=417967649 dist=55.333 m V*=(0.54,4.22,0.03) m/s v=15.3 km/h
  + X=9.878833293915 Y=53.53534698486 alt=-0.8240966796875 date=417967658 dist=36.531 m V*=(2.52,3.18,0.1) m/s v=14.6 km/h
  + X=9.878640174866 Y=53.53558301926 alt=-1.3046875 date=417967669 dist=29.184 m V*=(1.16,2.38,-0.04) m/s v=9.5 km/h
  + X=9.878318309784 Y=53.53586196899 alt=-3.227294921875 date=417967681 dist=37.61 m V*=(1.77,2.58,-0.16) m/s v=11.2 km/h
  + X=9.878361225128 Y=53.53596925735 alt=-4.188598632812 date=417967688 dist=12.262 m V*=(0.4,1.7,-0.13) m/s v=6.3 km/h
  + X=9.878876209259 Y=53.53624820709 alt=-5.630493164062 date=417967705 dist=46.047 m V*=(2,1.82,-0.08) m/s v=9.7 km/h
  + X=9.878940582275 Y=53.53629112244 alt=-6.591918945312 date=417967718 dist=6.392 m V*=(0.32,0.36,-0.07) m/s v=1.7 km/h
  + X=9.878962039948 Y=53.53629112244 alt=-6.591918945312 date=417967740 dist=1.418 m V*=(0.06,0,0) m/s v=0.2 km/h
  + X=9.878919124603 Y=53.53631258011 alt=-7.072509765625 date=417967825 dist=3.706 m V*=(0.03,0.02,0) m/s v=0.1 km/h
  + X=9.878919124603 Y=53.53633403778 alt=-3.707885742188 date=417967900 dist=2.385 m V*=(0,0.03,0.04) m/s v=0.1 km/h
  + X=9.878962039948 Y=53.53635549545 alt=-3.227294921875 date=417968031 dist=3.706 m V*=(0.02,0.01,0) m/s v=0.1 km/h
  + X=9.878940582275 Y=53.53641986847 alt=-4.669311523438 date=417968094 dist=7.297 m V*=(0.02,0.11,-0.02) m/s v=0.4 km/h
